
<svg width="1300px" height="892px" viewBox="0 0 1300 892" version="1.1" xmlns="http://www.w3.org/2000/svg" xmlns:xlink="http://www.w3.org/1999/xlink">
    <!-- Generator: Sketch 48.2 (47327) - http://www.bohemiancoding.com/sketch -->
    <desc>Created with Sketch.</desc>
    <defs>
        <rect id="path-1" x="0" y="0" width="173" height="305"></rect>
        <radialGradient cx="51.0727167%" cy="50%" fx="51.0727167%" fy="50%" r="50%" gradientTransform="translate(0.510727,0.500000),scale(0.686154,1.000000),rotate(90.000000),scale(1.000000,1.492387),translate(-0.510727,-0.500000)" id="radialGradient-3">
            <stop stop-color="#E8EAEF" offset="0%"></stop>
            <stop stop-color="#E8EAEF" stop-opacity="0" offset="100%"></stop>
        </radialGradient>
        <ellipse id="path-4" cx="650" cy="446" rx="650" ry="446"></ellipse>
        <filter x="-4.9%" y="-35.3%" width="109.2%" height="170.6%" filterUnits="objectBoundingBox" id="filter-6">
            <feOffset dx="0" dy="0" in="SourceAlpha" result="shadowOffsetOuter1"></feOffset>
            <feGaussianBlur stdDeviation="2" in="shadowOffsetOuter1" result="shadowBlurOuter1"></feGaussianBlur>
            <feColorMatrix values="0 0 0 0 0.909803922   0 0 0 0 0.917647059   0 0 0 0 0.937254902  0 0 0 1 0" type="matrix" in="shadowBlurOuter1" result="shadowMatrixOuter1"></feColorMatrix>
            <feMerge>
                <feMergeNode in="shadowMatrixOuter1"></feMergeNode>
                <feMergeNode in="SourceGraphic"></feMergeNode>
            </feMerge>
        </filter>
        <rect id="path-7" x="0" y="0" width="173" height="305"></rect>
        <rect id="path-9" x="0" y="0" width="173" height="305"></rect>
        <filter x="-4.9%" y="-35.3%" width="109.2%" height="170.6%" filterUnits="objectBoundingBox" id="filter-11">
            <feOffset dx="0" dy="0" in="SourceAlpha" result="shadowOffsetOuter1"></feOffset>
            <feGaussianBlur stdDeviation="2" in="shadowOffsetOuter1" result="shadowBlurOuter1"></feGaussianBlur>
            <feColorMatrix values="0 0 0 0 0.909803922   0 0 0 0 0.917647059   0 0 0 0 0.937254902  0 0 0 1 0" type="matrix" in="shadowBlurOuter1" result="shadowMatrixOuter1"></feColorMatrix>
            <feMerge>
                <feMergeNode in="shadowMatrixOuter1"></feMergeNode>
                <feMergeNode in="SourceGraphic"></feMergeNode>
            </feMerge>
        </filter>
        <filter x="-4.9%" y="-35.3%" width="109.2%" height="170.6%" filterUnits="objectBoundingBox" id="filter-12">
            <feOffset dx="0" dy="0" in="SourceAlpha" result="shadowOffsetOuter1"></feOffset>
            <feGaussianBlur stdDeviation="2" in="shadowOffsetOuter1" result="shadowBlurOuter1"></feGaussianBlur>
            <feColorMatrix values="0 0 0 0 0.909803922   0 0 0 0 0.917647059   0 0 0 0 0.937254902  0 0 0 1 0" type="matrix" in="shadowBlurOuter1" result="shadowMatrixOuter1"></feColorMatrix>
            <feMerge>
                <feMergeNode in="shadowMatrixOuter1"></feMergeNode>
                <feMergeNode in="SourceGraphic"></feMergeNode>
            </feMerge>
        </filter>
        <radialGradient cx="50%" cy="50%" fx="50%" fy="50%" r="50%" gradientTransform="translate(0.500000,0.500000),scale(0.686154,1.000000),rotate(90.000000),scale(1.000000,1.492387),translate(-0.500000,-0.500000)" id="radialGradient-13">
            <stop stop-color="#E8EAEF" stop-opacity="0" offset="0%"></stop>
            <stop stop-color="#E8EAEF" stop-opacity="0.0564216648" offset="80.6824552%"></stop>
            <stop stop-color="#E8EAEF" offset="100%"></stop>
        </radialGradient>
        <ellipse id="path-14" cx="650" cy="446" rx="650" ry="446"></ellipse>
    </defs>
    <g id="UI" stroke="none" stroke-width="1" fill="none" fill-rule="evenodd">
        <g id="11_Polyface_Casestudy" transform="translate(-70.000000, -4655.000000)">
            <g id="[User-Experience]" transform="translate(0.000000, 4555.000000)">
                <g id="Ilustra" transform="translate(70.000000, 100.000000)">
                    <g id="Group-4" transform="translate(1014.000000, 309.000000)">
                        <mask id="mask-2" fill="white">
                            <use xlink:href="#path-1"></use>
                        </mask>
                        <rect stroke="#AAB1BE" x="0.5" y="0.5" width="172" height="304"></rect>
                        <g mask="url(#mask-2)" id="Rectangle-7" stroke="#AAB1BE">
                            <g transform="translate(5.000000, 122.000000)">
                                <rect x="0.5" y="0.5" width="54" height="83"></rect>
                                <rect x="54.5" y="0.5" width="54" height="83"></rect>
                                <rect x="108.5" y="0.5" width="54" height="83"></rect>
                                <rect x="0.5" y="83.5" width="54" height="83"></rect>
                                <rect x="54.5" y="83.5" width="54" height="83"></rect>
                                <rect x="108.5" y="83.5" width="54" height="83"></rect>
                                <rect x="0.5" y="166.5" width="54" height="83"></rect>
                                <rect x="54.5" y="166.5" width="54" height="83"></rect>
                                <rect x="108.5" y="166.5" width="54" height="83"></rect>
                            </g>
                        </g>
                    </g>
                    <mask id="mask-5" fill="white">
                        <use xlink:href="#path-4"></use>
                    </mask>
                    <use id="Oval-8" fill="url(#radialGradient-3)" xlink:href="#path-4"></use>
                    <text id="Lorem-ipsum-dolor-si" mask="url(#mask-5)" font-family="FranklinGothicURW-Boo, FranklinGothic URW" font-size="7" font-weight="300" fill="#98A3A7">
                        <tspan x="1024" y="401">Lorem ipsum dolor sit amet, consectetur </tspan>
                        <tspan x="1024" y="408">adipiscing elit, sed do eiusmod tempor incididunt </tspan>
                        <tspan x="1024" y="415">ut labore et dolore magna aliqua.</tspan>
                    </text>
                    <path d="M1014.5,337.5 L1186.57266,337.5" stroke="#AAB1BE" stroke-linecap="square" mask="url(#mask-5)"></path>
                    <polyline id="Rectangle-17" stroke="#AAB1BE" mask="url(#mask-5)" transform="translate(1025.500000, 326.500000) scale(-1, 1) rotate(-45.000000) translate(-1025.500000, -326.500000) " points="1028 324 1028 329 1023 329"></polyline>
                    <text id="username" mask="url(#mask-5)" font-family="FranklinGothicURW-Dem, FranklinGothic URW" font-size="10" font-weight="500" fill="#98A3A7">
                        <tspan x="1079.275" y="327">username</tspan>
                    </text>
                    <rect id="Rectangle" fill="#AAB1BE" mask="url(#mask-5)" x="1089" y="313" width="23" height="2" rx="1"></rect>
                    <rect id="Rectangle" fill="#AAB1BE" mask="url(#mask-5)" x="1162" y="313" width="20" height="2" rx="1"></rect>
                    <rect id="Rectangle" fill="#AAB1BE" mask="url(#mask-5)" x="1019" y="313" width="20" height="2" rx="1"></rect>
                    <rect id="Rectangle-14" stroke="#98A3A7" mask="url(#mask-5)" x="1169.5" y="321.5" width="10" height="10"></rect>
                    <rect id="Rectangle-3" fill="#E8EAEF" mask="url(#mask-5)" x="1023" y="587" width="154" height="25"></rect>
                    <g id="Icons-(white-background)" filter="url(#filter-6)" mask="url(#mask-5)">
                        <g transform="translate(1029.000000, 591.000000)" id="Icons">
                            <g>
                                <g id="Profile" transform="translate(127.701875, 2.347461)" stroke="#AAB1BE" stroke-linecap="round" stroke-linejoin="round">
                                    <path d="M13.1457813,6.57289063 C13.1457813,10.2029764 10.2029764,13.1457813 6.57289063,13.1457813 C2.94280485,13.1457813 0,10.2029764 0,6.57289063 C0,2.94280485 2.94280485,0 6.57289063,0 C10.2029764,0 13.1457813,2.94280485 13.1457813,6.57289063 L13.1457813,6.57289063 Z" id="Stroke-1"></path>
                                    <path d="M8.76385417,5.14876432 C8.76385417,6.35880914 7.78293545,7.33972786 6.57289063,7.33972786 C5.3628458,7.33972786 4.38192708,6.35880914 4.38192708,5.14876432 C4.38192708,3.9387195 5.3628458,2.95780078 6.57289063,2.95780078 C7.78293545,2.95780078 8.76385417,3.9387195 8.76385417,5.14876432 L8.76385417,5.14876432 Z" id="Stroke-3"></path>
                                    <path d="M9.85933594,12.2693958 C9.85933594,10.4618509 8.38043555,8.98295052 6.57289062,8.98295052 L6.57289062,8.98295052 C4.7653457,8.98295052 3.28644531,10.4618509 3.28644531,12.2693958" id="Stroke-5"></path>
                                </g>
                                <g id="Stats" transform="translate(94.837422, 2.347461)" stroke-linecap="round" stroke-linejoin="round">
                                    <path d="M2.7634663,12.1116746 C2.7634663,12.8535427 2.15448754,13.4549896 1.4033291,13.4549896 C0.652170671,13.4549896 0.0431919122,12.8535427 0.0431919122,12.1116746 C0.0431919122,11.3698065 0.652170671,10.7683596 1.4033291,10.7683596 C2.15448754,10.7683596 2.7634663,11.3698065 2.7634663,12.1116746 L2.7634663,12.1116746 Z" id="Stroke-1" stroke="#BCBCBC"></path>
                                    <path d="M13.6693123,10.9880125 C13.6693123,11.7298806 13.0603335,12.3313275 12.3091751,12.3313275 C11.5580167,12.3313275 10.9490379,11.7298806 10.9490379,10.9880125 C10.9490379,10.2461444 11.5580167,9.64469744 12.3091751,9.64469744 C13.0603335,9.64469744 13.6693123,10.2461444 13.6693123,10.9880125 L13.6693123,10.9880125 Z" id="Stroke-3" stroke="#BCBCBC"></path>
                                    <path d="M8.21638929,6.76668976 C8.21638929,7.50855788 7.60741053,8.1100048 6.8562521,8.1100048 C6.10509366,8.1100048 5.49611491,7.50855788 5.49611491,6.76668976 C5.49611491,6.02482165 6.10509366,5.42337473 6.8562521,5.42337473 C7.60741053,5.42337473 8.21638929,6.02482165 8.21638929,6.76668976 L8.21638929,6.76668976 Z" id="Stroke-5" stroke="#BCBCBC"></path>
                                    <path d="M19.1222292,1.42169896 C19.1222292,2.16356707 18.5132505,2.76501399 17.762092,2.76501399 C17.0109336,2.76501399 16.4019548,2.16356707 16.4019548,1.42169896 C16.4019548,0.679830841 17.0109336,0.0783839247 17.762092,0.0783839247 C18.5132505,0.0783839247 19.1222292,0.679830841 19.1222292,1.42169896 L19.1222292,1.42169896 Z" id="Stroke-7" stroke="#AAB1BE"></path>
                                    <path d="M2.35656765,11.2917032 L5.95428165,7.73848565" id="Stroke-9" stroke="#AAB1BE"></path>
                                    <path d="M7.974436,7.6143514 L11.1687031,9.99428772" id="Stroke-11" stroke="#AAB1BE"></path>
                                    <path d="M13.1301297,9.91125891 L17.1163594,2.69723927" id="Stroke-13" stroke="#AAB1BE"></path>
                                </g>
                                <g id="Stories" transform="translate(61.972969, 0.469492)" stroke="#AAB1BE">
                                    <path d="M0.5,14.0517561 L4.60919298,14.0517561 L4.60919298,1.85853059 L0.5,1.85853059 L0.5,14.0517561 Z" id="Stroke-1-Copy-6"></path>
                                    <path d="M7.07289062,15.4102867 L11.2373047,15.4102867 L11.2373047,0.5 L7.07289062,0.5 L7.07289062,15.4102867 Z" id="Stroke-1-Copy-7"></path>
                                    <path d="M13.6457813,14.0517561 L17.7549742,14.0517561 L17.7549742,1.85853059 L13.6457813,1.85853059 L13.6457813,14.0517561 Z" id="Stroke-1-Copy-8"></path>
                                </g>
                                <g id="Camera" transform="translate(31.455977, 2.816953)" stroke="#AAB1BE">
                                    <path d="M13.1457813,6.57289063 C13.1457813,10.2029764 10.2029764,13.1457813 6.57289063,13.1457813 C2.94280485,13.1457813 0,10.2029764 0,6.57289063 C0,2.94280485 2.94280485,0 6.57289063,0 C10.2029764,0 13.1457813,2.94280485 13.1457813,6.57289063 L13.1457813,6.57289063 Z" id="Stroke-1"></path>
                                    <path d="M6.57289062,11.2678125 C3.97994613,11.2678125 1.87796875,9.16583512 1.87796875,6.57289063 C1.87796875,3.97994613 3.97994613,1.87796875 6.57289062,1.87796875 C9.16583512,1.87796875 11.2678125,3.97994613 11.2678125,6.57289063 C11.2678125,9.16583512 9.16583512,11.2678125 6.57289062,11.2678125 Z" id="Stroke-3"></path>
                                </g>
                                <g id="Inbox" transform="translate(0.000000, 3.000000)" stroke="#AAB1BE">
                                    <polygon id="Stroke-1" points="0 12.4932422 12.6762891 12.4932422 12.6762891 0.286445313 0 0.286445313"></polygon>
                                    <polyline id="Stroke-3" points="0 5.92035156 3.3802968 5.92035156 3.38034375 7.32882813 9.29594531 7.32882813 9.29594531 5.92035156 12.6762891 5.92035156"></polyline>
                                </g>
                            </g>
                        </g>
                    </g>
                    <rect id="Mask" stroke="#AAB1BE" mask="url(#mask-5)" x="1014.5" y="-47.5" width="172" height="304"></rect>
                    <rect id="Mask" stroke="#AAB1BE" mask="url(#mask-5)" x="1239.5" y="-47.5" width="172" height="304"></rect>
                    <rect id="Mask" stroke="#AAB1BE" mask="url(#mask-5)" x="1239.5" y="309.5" width="172" height="304"></rect>
                    <rect id="Mask" stroke="#AAB1BE" mask="url(#mask-5)" x="1239.5" y="666.5" width="172" height="304"></rect>
                    <rect id="Mask" stroke="#AAB1BE" mask="url(#mask-5)" x="919.5" y="666.5" width="172" height="304"></rect>
                    <rect id="Mask" stroke="#AAB1BE" mask="url(#mask-5)" x="694.5" y="666.5" width="172" height="304"></rect>
                    <rect id="Mask" stroke="#AAB1BE" mask="url(#mask-5)" x="469.5" y="666.5" width="172" height="304"></rect>
                    <rect id="Mask" stroke="#AAB1BE" mask="url(#mask-5)" x="244.5" y="666.5" width="172" height="304"></rect>
                    <rect id="Mask" stroke="#AAB1BE" mask="url(#mask-5)" x="-112.5" y="666.5" width="172" height="304"></rect>
                    <rect id="Mask" stroke="#AAB1BE" mask="url(#mask-5)" x="-112.5" y="308.5" width="172" height="304"></rect>
                    <rect id="Rectangle" fill="#AAB1BE" mask="url(#mask-5)" x="865" y="314" width="23" height="2" rx="1"></rect>
                    <rect id="Rectangle" fill="#AAB1BE" mask="url(#mask-5)" x="937" y="314" width="20" height="2" rx="1"></rect>
                    <rect id="Rectangle" fill="#AAB1BE" mask="url(#mask-5)" x="794" y="314" width="20" height="2" rx="1"></rect>
                    <path d="M790.5,352.5 L960.570007,352.5" stroke="#AAB1BE" stroke-linecap="square" mask="url(#mask-5)"></path>
                    <rect id="Rectangle-5" fill="#AAB1BE" mask="url(#mask-5)" x="827" y="326" width="45.5" height="18"></rect>
                    <rect id="Rectangle-5" stroke="#AAB1BE" mask="url(#mask-5)" x="871.5" y="326.5" width="51.5" height="17"></rect>
                    <text id="STATS" mask="url(#mask-5)" font-family="FranklinGothicURW-Dem, FranklinGothic URW" font-size="8" font-weight="500" fill="#E8EAEF">
                        <tspan x="839.008" y="335">STATS</tspan>
                    </text>
                    <text id="ACTIVITY" mask="url(#mask-5)" font-family="FranklinGothicURW-Dem, FranklinGothic URW" font-size="8" font-weight="500" fill="#AAB1BE">
                        <tspan x="882.274" y="335">ACTIVITY</tspan>
                    </text>
                    <rect id="Mask" stroke="#AAB1BE" mask="url(#mask-5)" x="112.5" y="-47.5" width="172" height="304"></rect>
                    <rect id="Mask" stroke="#AAB1BE" mask="url(#mask-5)" x="338.5" y="309.5" width="172" height="304"></rect>
                    <g id="Group-3" mask="url(#mask-5)">
                        <g transform="translate(367.000000, 382.000000)">
                            <polyline id="Path-9" stroke="#AAB1BE" stroke-width="1" fill="none" opacity="0.5" points="8.72973644 26.0894657 5.35579956 38.8750819 3.70027204 51.9989592 2.22038006 71.5931627 2.22038006 85.833735 8.72973644 98.4935875 19.7318931 111.281372 32.4427016 121.192854 43.0881664 125.924171 58.1190986 125.924171 75.6176016 121.192854 93.7839533 109.262648 101.532516 96.3718669 106.865548 82.4576298 114.345236 66.1246095 117.914324 54.1228481 120.204091 42.6078791"></polyline>
                            <polyline id="Path-2" stroke="#AAB1BE" stroke-width="1" fill="none" opacity="0.5" points="48.801742 63.8966402 62.1912409 54.0491246 71.3882546 68.9195996"></polyline>
                            <path d="M110.596177,42.6029108 C108.57167,34.6689551 105.339037,30.045693 100.898276,28.7331246 C96.4575164,27.4205562 90.9495716,29.1606489 84.3744423,33.9534029 C87.5973181,40.7612674 91.4833446,44.739087 96.0325217,45.8868616 C100.581699,47.0346362 105.436251,45.9399859 110.596177,42.6029108 Z" id="Path-14" stroke="#AAB1BE" stroke-width="1" fill="none" opacity="0.5"></path>
                            <polyline id="Path-16" stroke="#AAB1BE" stroke-width="1" fill="none" opacity="0.5" points="89.9253924 18.3181355 99.185288 19.7882699 109.781965 21.4839117 116.004016 27.4132372 118.354497 33.6515511"></polyline>
                            <polygon id="Path-10" stroke="#AAB1BE" stroke-width="1" fill="none" opacity="0.5" points="31.6404158 80.6622443 47.5267581 78.2683971 56.2098753 80.6622443 63.4131004 81.8233904 75.2804247 92.4124783 63.4131004 95.8308661 53.6956852 95.8308661 41.331811 90.2007716"></polygon>
                            <polygon id="Path-13" stroke="#AAB1BE" stroke-width="1" fill="none" opacity="0.5" points="54.1055014 26.314973 47.698057 21.3548955 42.6696768 17.370571 35.4827142 17.370571 26.6673283 21.3548955 33.1311495 23.1860586 40.3864148 26.314973 46.3992214 26.314973"></polygon>
                            <polygon id="Path-13" stroke="#AAB1BE" stroke-width="1" fill="none" opacity="0.5" points="109.972779 42.9678235 104.675525 37.3854324 99.0150733 34.225077 91.332645 32.9251572 83.9906461 34.780172 89.8289013 37.9405274 95.4329758 40.6205955 102.064843 42.4127285"></polygon>
                            <path d="M26.0894657,20.8782747 C30.9313687,14.9290728 36.3363173,12.4929429 42.3043115,13.5698851 C48.2723057,14.6468273 52.1735105,19.1255333 54.0079261,27.0060033 C49.0127937,30.2585132 43.7813123,31.418575 38.3134819,30.4861888 C32.8456514,29.5538027 28.7709794,26.3511647 26.0894657,20.8782747 Z" id="Path-12" stroke="#AAB1BE" stroke-width="1" fill="none" opacity="0.5"></path>
                            <polyline id="Path-11" stroke="#AAB1BE" stroke-width="1" fill="none" opacity="0.5" points="32.1955109 81.5989672 45.2055503 86.2370462 54.8123802 87.9120888 64.3617491 90.3015994 75.9894719 93.5183316"></polyline>
                            <polyline id="Path-15" stroke="#AAB1BE" stroke-width="1" fill="none" opacity="0.5" points="59.0113704 8.21800823 49.9401204 4.84732385 39.7023036 1.66528504 31.2056637 1.66528504 22.7588956 4.94164664"></polyline>
                            <circle id="Oval" stroke="none" fill="#AAB1BE" fill-rule="evenodd" cx="8.88152024" cy="26.6445607" r="1.66528504"></circle>
                            <circle id="Oval" stroke="none" fill="#AAB1BE" fill-rule="evenodd" cx="4.99585513" cy="38.301556" r="1.66528504"></circle>
                            <circle id="Oval" stroke="none" fill="#AAB1BE" fill-rule="evenodd" cx="3.33057009" cy="53.2891214" r="1.66528504"></circle>
                            <circle id="Oval" stroke="none" fill="#AAB1BE" fill-rule="evenodd" cx="1.66528504" cy="70.4970669" r="1.66528504"></circle>
                            <circle id="Oval" stroke="none" fill="#AAB1BE" fill-rule="evenodd" cx="2.22038006" cy="86.0397273" r="1.66528504"></circle>
                            <circle id="Oval" stroke="none" fill="#AAB1BE" fill-rule="evenodd" cx="8.88152024" cy="99.3620077" r="1.66528504"></circle>
                            <circle id="Oval" stroke="none" fill="#AAB1BE" fill-rule="evenodd" cx="19.9834205" cy="112.129193" r="1.66528504"></circle>
                            <circle id="Oval" stroke="none" fill="#AAB1BE" fill-rule="evenodd" cx="33.3057009" cy="121.565808" r="1.66528504"></circle>
                            <circle id="Oval" stroke="none" fill="#AAB1BE" fill-rule="evenodd" cx="41.0770311" cy="21.0936106" r="1.66528504"></circle>
                            <circle id="Oval" stroke="none" fill="#AAB1BE" fill-rule="evenodd" cx="96.5865326" cy="36.081176" r="1.66528504"></circle>
                            <circle id="Oval" stroke="none" fill="#AAB1BE" fill-rule="evenodd" cx="43.8525062" cy="125.451473" r="1.66528504"></circle>
                            <circle id="Oval" stroke="none" fill="#AAB1BE" fill-rule="evenodd" cx="58.2849766" cy="126.006568" r="1.66528504"></circle>
                            <circle id="Oval" stroke="none" fill="#AAB1BE" fill-rule="evenodd" cx="75.492922" cy="121.565808" r="1.66528504"></circle>
                            <circle id="Oval" stroke="none" fill="#AAB1BE" fill-rule="evenodd" cx="93.2559625" cy="109.353718" r="1.66528504"></circle>
                            <circle id="Oval" stroke="none" fill="#AAB1BE" fill-rule="evenodd" cx="102.137483" cy="96.0314376" r="1.66528504"></circle>
                            <circle id="Oval" stroke="none" fill="#AAB1BE" fill-rule="evenodd" cx="107.688433" cy="81.5989672" r="1.66528504"></circle>
                            <circle id="Oval" stroke="none" fill="#AAB1BE" fill-rule="evenodd" cx="113.794478" cy="67.7215918" r="1.66528504"></circle>
                            <circle id="Oval" stroke="none" fill="#AAB1BE" fill-rule="evenodd" cx="117.680143" cy="54.3993115" r="1.66528504"></circle>
                            <circle id="Oval" stroke="none" fill="#AAB1BE" fill-rule="evenodd" cx="120.455618" cy="43.2974112" r="1.66528504"></circle>
                            <circle id="Oval" stroke="none" fill="#AAB1BE" fill-rule="evenodd" cx="62.1706417" cy="54.3993115" r="1.66528504"></circle>
                            <circle id="Oval" stroke="none" fill="#AAB1BE" fill-rule="evenodd" cx="71.6072569" cy="67.7215918" r="1.66528504"></circle>
                            <circle id="Oval" stroke="none" fill="#AAB1BE" fill-rule="evenodd" cx="49.9585513" cy="63.8359267" r="1.66528504"></circle>
                            <circle id="Oval" stroke="none" fill="#AAB1BE" fill-rule="evenodd" cx="59.3951666" cy="66.0563068" r="1.66528504"></circle>
                            <circle id="Oval" stroke="none" fill="#AAB1BE" fill-rule="evenodd" cx="56.0645965" cy="81.0438722" r="1.66528504"></circle>
                            <circle id="Oval" stroke="none" fill="#AAB1BE" fill-rule="evenodd" cx="63.2808317" cy="81.5989672" r="1.66528504"></circle>
                            <circle id="Oval" stroke="none" fill="#AAB1BE" fill-rule="evenodd" cx="47.7381713" cy="78.8234921" r="1.66528504"></circle>
                            <circle id="Oval" stroke="none" fill="#AAB1BE" fill-rule="evenodd" cx="31.6404158" cy="80.4887772" r="1.66528504"></circle>
                            <circle id="Oval" stroke="none" fill="#AAB1BE" fill-rule="evenodd" cx="74.937827" cy="92.1457725" r="1.66528504"></circle>
                            <circle id="Oval" stroke="none" fill="#AAB1BE" fill-rule="evenodd" cx="63.8359267" cy="96.0314376" r="1.66528504"></circle>
                            <circle id="Oval" stroke="none" fill="#AAB1BE" fill-rule="evenodd" cx="52.7340264" cy="95.4763426" r="1.66528504"></circle>
                            <circle id="Oval" stroke="none" fill="#AAB1BE" fill-rule="evenodd" cx="41.0770311" cy="90.4804874" r="1.66528504"></circle>
                            <circle id="Oval" stroke="none" fill="#AAB1BE" fill-rule="evenodd" cx="44.4076012" cy="84.9295373" r="1.66528504"></circle>
                            <circle id="Oval" stroke="none" fill="#AAB1BE" fill-rule="evenodd" cx="53.8442164" cy="87.1499173" r="1.66528504"></circle>
                            <circle id="Oval" stroke="none" fill="#AAB1BE" fill-rule="evenodd" cx="62.7257367" cy="89.3702974" r="1.66528504"></circle>
                            <circle id="Oval" stroke="none" fill="#AAB1BE" fill-rule="evenodd" cx="53.8442164" cy="26.6445607" r="1.66528504"></circle>
                            <circle id="Oval" stroke="none" fill="#AAB1BE" fill-rule="evenodd" cx="42.7423161" cy="13.8773754" r="1.66528504"></circle>
                            <circle id="Oval" stroke="none" fill="#AAB1BE" fill-rule="evenodd" cx="26.6445607" cy="21.0936106" r="1.66528504"></circle>
                            <circle id="Oval" stroke="none" fill="#AAB1BE" fill-rule="evenodd" cx="34.9709859" cy="17.2079455" r="1.66528504"></circle>
                            <circle id="Oval" stroke="none" fill="#AAB1BE" fill-rule="evenodd" cx="42.1872211" cy="17.7630405" r="1.66528504"></circle>
                            <circle id="Oval" stroke="none" fill="#AAB1BE" fill-rule="evenodd" cx="47.7381713" cy="21.6487056" r="1.66528504"></circle>
                            <circle id="Oval" stroke="none" fill="#AAB1BE" fill-rule="evenodd" cx="39.4117461" cy="25.5343707" r="1.66528504"></circle>
                            <circle id="Oval" stroke="none" fill="#AAB1BE" fill-rule="evenodd" cx="38.301556" cy="30.5302258" r="1.66528504"></circle>
                            <circle id="Oval" stroke="none" fill="#AAB1BE" fill-rule="evenodd" cx="95.198795" cy="45.7953387" r="1.94283255"></circle>
                            <circle id="Oval" stroke="none" fill="#AAB1BE" fill-rule="evenodd" cx="100.19465" cy="29.6975833" r="1.94283255"></circle>
                            <circle id="Oval" stroke="none" fill="#AAB1BE" fill-rule="evenodd" cx="98.5293651" cy="34.1383434" r="1.94283255"></circle>
                            <circle id="Oval" stroke="none" fill="#AAB1BE" fill-rule="evenodd" cx="91.3131299" cy="33.0281534" r="1.94283255"></circle>
                            <circle id="Oval" stroke="none" fill="#AAB1BE" fill-rule="evenodd" cx="84.0968947" cy="34.1383434" r="1.94283255"></circle>
                            <circle id="Oval" stroke="none" fill="#AAB1BE" fill-rule="evenodd" cx="90.7580349" cy="18.595683" r="1.94283255"></circle>
                            <circle id="Oval" stroke="none" fill="#AAB1BE" fill-rule="evenodd" cx="99.6395552" cy="19.705873" r="1.94283255"></circle>
                            <circle id="Oval" stroke="none" fill="#AAB1BE" fill-rule="evenodd" cx="109.631265" cy="21.3711581" r="1.94283255"></circle>
                            <circle id="Oval" stroke="none" fill="#AAB1BE" fill-rule="evenodd" cx="118.512786" cy="33.5832484" r="1.94283255"></circle>
                            <circle id="Oval" stroke="none" fill="#AAB1BE" fill-rule="evenodd" cx="115.737311" cy="26.3670132" r="1.94283255"></circle>
                            <circle id="Oval" stroke="none" fill="#AAB1BE" fill-rule="evenodd" cx="58.5625241" cy="8.60397273" r="1.94283255"></circle>
                            <circle id="Oval" stroke="none" fill="#AAB1BE" fill-rule="evenodd" cx="49.6810038" cy="4.71830763" r="1.94283255"></circle>
                            <circle id="Oval" stroke="none" fill="#AAB1BE" fill-rule="evenodd" cx="39.6892936" cy="1.94283255" r="1.94283255"></circle>
                            <circle id="Oval" stroke="none" fill="#AAB1BE" fill-rule="evenodd" cx="23.0364431" cy="4.71830763" r="1.94283255"></circle>
                            <circle id="Oval" stroke="none" fill="#AAB1BE" fill-rule="evenodd" cx="30.8077733" cy="1.94283255" r="1.94283255"></circle>
                            <circle id="Oval" stroke="none" fill="#AAB1BE" fill-rule="evenodd" cx="89.6478449" cy="37.4689135" r="1.94283255"></circle>
                            <circle id="Oval" stroke="none" fill="#AAB1BE" fill-rule="evenodd" cx="95.7538901" cy="40.2443886" r="1.94283255"></circle>
                            <circle id="Oval" stroke="none" fill="#AAB1BE" fill-rule="evenodd" cx="101.859935" cy="41.9096736" r="1.94283255"></circle>
                            <circle id="Oval" stroke="none" fill="#AAB1BE" fill-rule="evenodd" cx="104.63541" cy="36.9138185" r="1.94283255"></circle>
                            <circle id="Oval" stroke="none" fill="#AAB1BE" fill-rule="evenodd" cx="109.631265" cy="42.4647686" r="1.94283255"></circle>
                            <circle id="Oval" stroke="none" fill="#AAB1BE" fill-rule="evenodd" cx="46.0728862" cy="26.0894657" r="1.66528504"></circle>
                            <circle id="Oval" stroke="none" fill="#AAB1BE" fill-rule="evenodd" cx="32.7506059" cy="23.3139906" r="1.66528504"></circle>
                        </g>
                    </g>
                    <g id="Navigation-Camera" mask="url(#mask-5)">
                        <g transform="translate(364.000000, 546.000000)">
                            <g id="Navigation" transform="translate(0.782104, 42.405479)">
                                <g id="Social" transform="translate(105.281375, 2.385281)" stroke="#AAB1BE" stroke-linecap="round" stroke-linejoin="round">
                                    <path d="M11.3220381,12.489382 C10.2112219,13.5200807 8.7237077,14.1502366 7.0891208,14.1502366 C5.45453389,14.1502366 3.96706581,13.5200807 2.85624956,12.4894282" id="Stroke-1"></path>
                                    <path d="M8.74907301,1.91762271 C11.3817619,2.64433887 13.3151522,5.05732992 13.3151522,7.92202729 C13.3151522,8.49719046 13.2372115,9.05413037 13.0913379,9.58288188" id="Stroke-3"></path>
                                    <path d="M1.08691751,9.58290033 C0.941043896,9.05414882 0.863103207,8.49720891 0.863103207,7.9219996 C0.863103207,5.05744064 2.79630902,2.64454186 5.42881347,1.91773344" id="Stroke-5"></path>
                                    <path d="M8.74939584,1.69381794 C8.74939584,2.61107103 8.00605381,3.35467254 7.0891208,3.35467254 C6.17218778,3.35467254 5.42884575,2.61107103 5.42884575,1.69381794 C5.42884575,0.77656486 6.17218778,0.0329633502 7.0891208,0.0329633502 C8.00605381,0.0329633502 8.74939584,0.77656486 8.74939584,1.69381794 L8.74939584,1.69381794 Z" id="Stroke-7"></path>
                                    <path d="M14.1452897,11.2437319 C14.1452897,12.1609849 13.4019477,12.9045865 12.4850147,12.9045865 C11.5680817,12.9045865 10.8247397,12.1609849 10.8247397,11.2437319 C10.8247397,10.3264788 11.5680817,9.58287727 12.4850147,9.58287727 C13.4019477,9.58287727 14.1452897,10.3264788 14.1452897,11.2437319 L14.1452897,11.2437319 Z" id="Stroke-9"></path>
                                    <path d="M3.35350194,11.2437319 C3.35350194,12.1609849 2.61015991,12.9045865 1.69322689,12.9045865 C0.776293881,12.9045865 0.0329518478,12.1609849 0.0329518478,11.2437319 C0.0329518478,10.3264788 0.776293881,9.58287727 1.69322689,9.58287727 C2.61015991,9.58287727 3.35350194,10.3264788 3.35350194,11.2437319 L3.35350194,11.2437319 Z" id="Stroke-11"></path>
                                </g>
                                <g id="Inbox">
                                    <g id="Group" transform="translate(0.000000, 4.232323)" stroke="#AAB1BE">
                                        <polygon id="Stroke-1" points="0 12.0057708 12.4675312 12.0057708 12.4675313 7.10542736e-15 0 7.10542736e-15"></polygon>
                                        <polyline id="Stroke-3" points="0 5.541125 3.32462882 5.541125 3.324675 6.92640625 9.14285625 6.92640625 9.14285625 5.541125 12.4675313 5.541125"></polyline>
                                    </g>
                                    <g id="notifications" transform="translate(0.385281, 0.000000)">
                                        <rect id="Rectangle-84" fill="#AAB1BE" x="-6.57252031e-14" y="1" width="10.6999998" height="6.46000004" rx="3.23000002"></rect>
                                        <text id="16" font-family=".AppleSystemUIFont" font-size="5" font-weight="normal" fill="#E8EAEF">
                                            <tspan x="2.50566146" y="5.96320313">16</tspan>
                                        </text>
                                    </g>
                                </g>
                            </g>
                            <g id="Camera-(shutter)" transform="translate(42.802302, 0.000000)">
                                <circle id="Oval-1" stroke="#AAB1BE" cx="18.0086563" cy="18.0086563" r="17.5086563"></circle>
                                <circle id="Oval-1" stroke="#AAB1BE" cx="18.0086563" cy="18.0086562" r="15.1998542"></circle>
                            </g>
                        </g>
                    </g>
                    <g id="Top-options" mask="url(#mask-5)">
                        <g transform="translate(354.000000, 325.000000)">
                            <g id="camera-roll" transform="translate(124.193807, 0.926819)" stroke-linecap="round" stroke-linejoin="round">
                                <polygon id="Stroke-1" stroke="#AAB1BE" points="1.30782647 10.6099196 5.80176728 4.24634538 10.2956623 10.6099196"></polygon>
                                <polyline id="Stroke-2" stroke="#AAB1BE" points="9.4715282 7.69234749 10.70775 5.94179779 14.0043413 10.609915 11.1198239 10.609915"></polyline>
                                <path d="M10.70775,2.72311053 C10.70775,3.29454779 10.2465019,3.75782309 9.67756516,3.75782309 C9.10862844,3.75782309 8.64738036,3.29454779 8.64738036,2.72311053 C8.64738036,2.15167327 9.10862844,1.68839797 9.67756516,1.68839797 C10.2465019,1.68839797 10.70775,2.15167327 10.70775,2.72311053 L10.70775,2.72311053 Z" id="Stroke-3" stroke="#AAB1BE"></path>
                                <polygon id="Stroke-5" stroke="#AAB1BE" points="0.0327369836 12.0355006 15.279472 12.0355006 15.279472 0.0328348786 0.0327369836 0.0328348786"></polygon>
                            </g>
                            <g id="change-camera" transform="translate(62.560313, 0.463410)">
                                <g id="Group-2" transform="translate(0.000000, 0.000000)" stroke="#AAB1BE">
                                    <path d="M12.9283281,3.84538695 C11.6399053,1.73103763 9.40869346,0.5 7.48584945,0.5 C4.42061802,0.5 1.89804334,2.85980084 1.59906472,5.88437749 L12.9283281,3.84538695 Z" id="Oval"></path>
                                    <polyline id="Path-3" stroke-linecap="round" stroke-linejoin="round" points="0 5.40644683 1.6041106 7.02838087 3.20822119 5.40644683"></polyline>
                                </g>
                                <g id="Group-2" transform="translate(7.971699, 8.975472) scale(-1, -1) translate(-7.971699, -8.975472) translate(0.971699, 4.975472)" stroke="#AAB1BE">
                                    <path d="M12.9283281,3.84538695 C11.6399053,1.73103763 9.40869346,0.5 7.48584945,0.5 C4.42061802,0.5 1.89804334,2.85980084 1.59906472,5.88437749 L12.9283281,3.84538695 Z" id="Oval"></path>
                                    <polyline id="Path-3" stroke-linecap="round" stroke-linejoin="round" points="0 5.40644683 1.6041106 7.02838087 3.20822119 5.40644683"></polyline>
                                </g>
                            </g>
                            <g id="flash">
                                <polyline id="Path-2" stroke="#AAB1BE" stroke-linecap="round" stroke-linejoin="round" points="9.61665695 1.1331816 4.03646488 6.71337367 10.2498723 6.71337367 4.05816985 12.9050761"></polyline>
                                <path d="M0,1.39022918 L3.01216323,3.47557296" stroke="#AAB1BE" stroke-linecap="square"></path>
                                <path d="M10.6584237,10.195014 L13.670587,12.2803578" stroke="#AAB1BE" stroke-linecap="square"></path>
                            </g>
                        </g>
                    </g>
                    <g id="Group" mask="url(#mask-5)">
                        <g transform="translate(112.000000, 309.000000)">
                            <mask id="mask-8" fill="white">
                                <use xlink:href="#path-7"></use>
                            </mask>
                            <rect stroke="#AAB1BE" stroke-width="1" x="0.5" y="0.5" width="172" height="304"></rect>
                            <g id="Group" stroke="none" stroke-width="1" fill="none" fill-rule="evenodd" mask="url(#mask-8)">
                                <g transform="translate(0.000000, 5.000000)">
                                    <path d="M0.5,24.5 L172.572659,24.5" stroke="#AAB1BE" stroke-width="1" fill="none" stroke-linecap="square"></path>
                                    <text id="Inbox" stroke="none" fill="none" font-family="FranklinGothicURW-Dem, FranklinGothic URW" font-size="10" font-weight="500">
                                        <tspan x="74.44" y="14" fill="#98A3A7">Inbox</tspan>
                                    </text>
                                    <rect id="Rectangle" stroke="none" fill="#AAB1BE" fill-rule="evenodd" x="76" y="0" width="23" height="2" rx="1"></rect>
                                    <rect id="Rectangle" stroke="none" fill="#AAB1BE" fill-rule="evenodd" x="148" y="0" width="20" height="2" rx="1"></rect>
                                    <rect id="Rectangle" stroke="none" fill="#AAB1BE" fill-rule="evenodd" x="5" y="0" width="20" height="2" rx="1"></rect>
                                    <text id="User-name" stroke="none" fill="none" font-family="FranklinGothic-Medium, Franklin Gothic Medium" font-size="7" font-weight="normal">
                                        <tspan x="36.2902832" y="43" fill="#98A3A7">User name</tspan>
                                    </text>
                                    <text id="Recived-12-min-ago" stroke="none" fill="none" font-family="FranklinGothicURW-Boo, FranklinGothic URW" font-size="6" font-weight="300">
                                        <tspan x="46.348" y="50" fill="#98A3A7">Recived 12 min ago</tspan>
                                    </text>
                                    <circle id="Oval-2" stroke="none" fill="#AAB1BE" fill-rule="evenodd" opacity="0.5" cx="39.5" cy="50.5" r="3.5"></circle>
                                    <rect id="Rectangle-13" stroke="#AAB1BE" stroke-width="1" fill="none" x="4.5" y="28.5" width="164" height="32" rx="6"></rect>
                                    <circle id="Oval" stroke="#AAB1BE" stroke-width="1" fill="none" cx="20.5" cy="45.5" r="9"></circle>
                                    <text id="User-name" stroke="none" fill="none" font-family="FranklinGothic-Medium, Franklin Gothic Medium" font-size="7" font-weight="normal">
                                        <tspan x="36.2902832" y="81" fill="#98A3A7">User name</tspan>
                                    </text>
                                    <text id="Recived-12-min-ago" stroke="none" fill="none" font-family="FranklinGothicURW-Boo, FranklinGothic URW" font-size="6" font-weight="300">
                                        <tspan x="46.348" y="88" fill="#98A3A7">Recived 12 min ago</tspan>
                                    </text>
                                    <circle id="Oval-2" stroke="none" fill="#AAB1BE" fill-rule="evenodd" opacity="0.5" cx="39.5" cy="88.5" r="3.5"></circle>
                                    <rect id="Rectangle-13" stroke="#AAB1BE" stroke-width="1" fill="none" x="4.5" y="66.5" width="164" height="32" rx="6"></rect>
                                    <circle id="Oval" stroke="#AAB1BE" stroke-width="1" fill="none" cx="20.5" cy="83.5" r="9"></circle>
                                    <text id="User-name" stroke="none" fill="none" font-family="FranklinGothic-Medium, Franklin Gothic Medium" font-size="7" font-weight="normal">
                                        <tspan x="36.2902832" y="119" fill="#98A3A7">User name</tspan>
                                    </text>
                                    <text id="Recived-12-min-ago" stroke="none" fill="none" font-family="FranklinGothicURW-Boo, FranklinGothic URW" font-size="6" font-weight="300">
                                        <tspan x="46.348" y="126" fill="#98A3A7">Recived 12 min ago</tspan>
                                    </text>
                                    <circle id="Oval-2" stroke="none" fill="#AAB1BE" fill-rule="evenodd" opacity="0.5" cx="39.5" cy="126.5" r="3.5"></circle>
                                    <rect id="Rectangle-13" stroke="#AAB1BE" stroke-width="1" fill="none" x="4.5" y="104.5" width="164" height="32" rx="6"></rect>
                                    <circle id="Oval" stroke="#AAB1BE" stroke-width="1" fill="none" cx="20.5" cy="121.5" r="9"></circle>
                                    <text id="User-name" stroke="none" fill="none" font-family="FranklinGothic-Medium, Franklin Gothic Medium" font-size="7" font-weight="normal">
                                        <tspan x="36.2902832" y="157" fill="#98A3A7">User name</tspan>
                                    </text>
                                    <text id="Recived-12-min-ago" stroke="none" fill="none" font-family="FranklinGothicURW-Boo, FranklinGothic URW" font-size="6" font-weight="300">
                                        <tspan x="46.348" y="164" fill="#98A3A7">Recived 12 min ago</tspan>
                                    </text>
                                    <circle id="Oval-2" stroke="none" fill="#AAB1BE" fill-rule="evenodd" opacity="0.5" cx="39.5" cy="164.5" r="3.5"></circle>
                                    <rect id="Rectangle-13" stroke="#AAB1BE" stroke-width="1" fill="none" x="4.5" y="142.5" width="164" height="32" rx="6"></rect>
                                    <circle id="Oval" stroke="#AAB1BE" stroke-width="1" fill="none" cx="20.5" cy="159.5" r="9"></circle>
                                    <text id="User-name" stroke="none" fill="none" font-family="FranklinGothic-Medium, Franklin Gothic Medium" font-size="7" font-weight="normal">
                                        <tspan x="36.2902832" y="195" fill="#98A3A7">User name</tspan>
                                    </text>
                                    <text id="Recived-12-min-ago" stroke="none" fill="none" font-family="FranklinGothicURW-Boo, FranklinGothic URW" font-size="6" font-weight="300">
                                        <tspan x="46.348" y="202" fill="#98A3A7">Recived 12 min ago</tspan>
                                    </text>
                                    <circle id="Oval-2" stroke="none" fill="#AAB1BE" fill-rule="evenodd" opacity="0.5" cx="39.5" cy="202.5" r="3.5"></circle>
                                    <rect id="Rectangle-13" stroke="#AAB1BE" stroke-width="1" fill="none" x="4.5" y="180.5" width="164" height="32" rx="6"></rect>
                                    <circle id="Oval" stroke="#AAB1BE" stroke-width="1" fill="none" cx="20.5" cy="197.5" r="9"></circle>
                                    <text id="User-name" stroke="none" fill="none" font-family="FranklinGothic-Medium, Franklin Gothic Medium" font-size="7" font-weight="normal">
                                        <tspan x="36.2902832" y="232" fill="#98A3A7">User name</tspan>
                                    </text>
                                    <text id="Recived-12-min-ago" stroke="none" fill="none" font-family="FranklinGothicURW-Boo, FranklinGothic URW" font-size="6" font-weight="300">
                                        <tspan x="46.348" y="239" fill="#98A3A7">Recived 12 min ago</tspan>
                                    </text>
                                    <circle id="Oval-2" stroke="none" fill="#AAB1BE" fill-rule="evenodd" opacity="0.5" cx="39.5" cy="239.5" r="3.5"></circle>
                                    <rect id="Rectangle-13" stroke="#AAB1BE" stroke-width="1" fill="none" x="4.5" y="217.5" width="164" height="32" rx="6"></rect>
                                    <circle id="Oval" stroke="#AAB1BE" stroke-width="1" fill="none" cx="20.5" cy="234.5" r="9"></circle>
                                    <text id="User-name" stroke="none" fill="none" font-family="FranklinGothic-Medium, Franklin Gothic Medium" font-size="7" font-weight="normal">
                                        <tspan x="36.2902832" y="270" fill="#98A3A7">User name</tspan>
                                    </text>
                                    <text id="Recived-12-min-ago" stroke="none" fill="none" font-family="FranklinGothicURW-Boo, FranklinGothic URW" font-size="6" font-weight="300">
                                        <tspan x="46.348" y="277" fill="#98A3A7">Recived 12 min ago</tspan>
                                    </text>
                                    <circle id="Oval-2" stroke="none" fill="#AAB1BE" fill-rule="evenodd" opacity="0.5" cx="39.5" cy="277.5" r="3.5"></circle>
                                    <rect id="Rectangle-13" stroke="#AAB1BE" stroke-width="1" fill="none" x="4.5" y="255.5" width="164" height="32" rx="6"></rect>
                                    <circle id="Oval" stroke="#AAB1BE" stroke-width="1" fill="none" cx="20.5" cy="272.5" r="9"></circle>
                                    <text id="User-name" stroke="none" fill="none" font-family="FranklinGothic-Medium, Franklin Gothic Medium" font-size="7" font-weight="normal">
                                        <tspan x="36.2902832" y="306" fill="#98A3A7">User name</tspan>
                                    </text>
                                    <text id="Recived-12-min-ago" stroke="none" fill="none" font-family="FranklinGothicURW-Boo, FranklinGothic URW" font-size="6" font-weight="300">
                                        <tspan x="46.348" y="313" fill="#98A3A7">Recived 12 min ago</tspan>
                                    </text>
                                    <circle id="Oval-2" stroke="none" fill="#AAB1BE" fill-rule="evenodd" opacity="0.5" cx="39.5" cy="313.5" r="3.5"></circle>
                                    <rect id="Rectangle-13" stroke="#AAB1BE" stroke-width="1" fill="none" x="4.5" y="291.5" width="164" height="32" rx="6"></rect>
                                    <circle id="Oval" stroke="#AAB1BE" stroke-width="1" fill="none" cx="20.5" cy="308.5" r="9"></circle>
                                    <g id="Navigation-Camera" stroke="none" stroke-width="1" fill="none" fill-rule="evenodd" transform="translate(22.000000, 270.000000)">
                                        <rect id="Rectangle-4" fill="#E8EAEF" x="0" y="0" width="128" height="23"></rect>
                                        <g id="Navigation" transform="translate(15.782104, 4.405479)">
                                            <g id="Social" transform="translate(85.281375, 2.385281)" stroke="#AAB1BE" stroke-linecap="round" stroke-linejoin="round">
                                                <path d="M11.3220381,12.489382 C10.2112219,13.5200807 8.7237077,14.1502366 7.0891208,14.1502366 C5.45453389,14.1502366 3.96706581,13.5200807 2.85624956,12.4894282" id="Stroke-1"></path>
                                                <path d="M8.74907301,1.91762271 C11.3817619,2.64433887 13.3151522,5.05732992 13.3151522,7.92202729 C13.3151522,8.49719046 13.2372115,9.05413037 13.0913379,9.58288188" id="Stroke-3"></path>
                                                <path d="M1.08691751,9.58290033 C0.941043896,9.05414882 0.863103207,8.49720891 0.863103207,7.9219996 C0.863103207,5.05744064 2.79630902,2.64454186 5.42881347,1.91773344" id="Stroke-5"></path>
                                                <path d="M8.74939584,1.69381794 C8.74939584,2.61107103 8.00605381,3.35467254 7.0891208,3.35467254 C6.17218778,3.35467254 5.42884575,2.61107103 5.42884575,1.69381794 C5.42884575,0.77656486 6.17218778,0.0329633502 7.0891208,0.0329633502 C8.00605381,0.0329633502 8.74939584,0.77656486 8.74939584,1.69381794 L8.74939584,1.69381794 Z" id="Stroke-7"></path>
                                                <path d="M14.1452897,11.2437319 C14.1452897,12.1609849 13.4019477,12.9045865 12.4850147,12.9045865 C11.5680817,12.9045865 10.8247397,12.1609849 10.8247397,11.2437319 C10.8247397,10.3264788 11.5680817,9.58287727 12.4850147,9.58287727 C13.4019477,9.58287727 14.1452897,10.3264788 14.1452897,11.2437319 L14.1452897,11.2437319 Z" id="Stroke-9"></path>
                                                <path d="M3.35350194,11.2437319 C3.35350194,12.1609849 2.61015991,12.9045865 1.69322689,12.9045865 C0.776293881,12.9045865 0.0329518478,12.1609849 0.0329518478,11.2437319 C0.0329518478,10.3264788 0.776293881,9.58287727 1.69322689,9.58287727 C2.61015991,9.58287727 3.35350194,10.3264788 3.35350194,11.2437319 L3.35350194,11.2437319 Z" id="Stroke-11"></path>
                                            </g>
                                            <g id="Inbox">
                                                <g id="Group" transform="translate(0.000000, 4.232323)" stroke="#AAB1BE">
                                                    <polygon id="Stroke-1" points="0 12.0057708 12.4675312 12.0057708 12.4675313 7.10542736e-14 0 7.10542736e-14"></polygon>
                                                    <polyline id="Stroke-3" points="0 5.541125 3.32462882 5.541125 3.324675 6.92640625 9.14285625 6.92640625 9.14285625 5.541125 12.4675313 5.541125"></polyline>
                                                </g>
                                                <g id="notifications" transform="translate(0.385281, 0.000000)">
                                                    <rect id="Rectangle-84" fill="#AAB1BE" x="-6.57252031e-14" y="1" width="10.6999998" height="6.46000004" rx="3.23000002"></rect>
                                                    <text id="16" font-family=".AppleSystemUIFont" font-size="5" font-weight="normal" fill="#E8EAEF">
                                                        <tspan x="2.50566146" y="5.96320313">16</tspan>
                                                    </text>
                                                </g>
                                            </g>
                                            <g id="Camera-(shutter)" transform="translate(41.217896, 2.594521)" stroke="#AAB1BE">
                                                <circle id="Oval-1" cx="7.30080659" cy="7.30080659" r="6.80080659"></circle>
                                                <circle id="Oval-1" cx="7.30100062" cy="7.30100062" r="4.86499977"></circle>
                                            </g>
                                        </g>
                                    </g>
                                </g>
                            </g>
                        </g>
                    </g>
                    <g id="Group" mask="url(#mask-5)">
                        <g transform="translate(563.000000, 309.000000)">
                            <mask id="mask-10" fill="white">
                                <use xlink:href="#path-9"></use>
                            </mask>
                            <rect stroke="#AAB1BE" stroke-width="1" x="0.5" y="0.5" width="172" height="304"></rect>
                            <g id="Group" stroke="none" stroke-width="1" fill="none" fill-rule="evenodd" mask="url(#mask-10)">
                                <g transform="translate(0.000000, 5.000000)">
                                    <path d="M0.5,24.5 L172.572659,24.5" stroke="#AAB1BE" stroke-width="1" fill="none" stroke-linecap="square"></path>
                                    <path d="M10.5,49.5 L160.570007,49.5" stroke="#AAB1BE" stroke-width="1" fill="none" stroke-linecap="square"></path>
                                    <text id="Polyface" stroke="none" fill="none" font-family="FranklinGothicURW-Dem, FranklinGothic URW" font-size="10" font-weight="500">
                                        <tspan x="68.22" y="14" fill="#98A3A7">Polyface</tspan>
                                    </text>
                                    <text id="FRIENDS" stroke="none" fill="none" font-family="FranklinGothicURW-Dem, FranklinGothic URW" font-size="8" font-weight="500">
                                        <tspan x="71.716" y="65" fill="#98A3A7">FRIENDS</tspan>
                                    </text>
                                    <text id="Discover" stroke="none" fill="none" font-family="FranklinGothicURW-Dem, FranklinGothic URW" font-size="8" font-weight="500">
                                        <tspan x="70.436" y="144" fill="#98A3A7">Discover</tspan>
                                    </text>
                                    <text id="TRENDING-NOW" stroke="none" fill="none" font-family="FranklinGothicURW-Dem, FranklinGothic URW" font-size="8" font-weight="500">
                                        <tspan x="57.508" y="256" fill="#98A3A7">TRENDING NOW</tspan>
                                    </text>
                                    <rect id="Rectangle-2" stroke="#AAB1BE" stroke-width="1" fill="none" x="6.5" y="157.5" width="50" height="80"></rect>
                                    <rect id="Rectangle-2" stroke="#AAB1BE" stroke-width="1" fill="none" x="6.5" y="268.5" width="161" height="80"></rect>
                                    <rect id="Rectangle-2" stroke="#AAB1BE" stroke-width="1" fill="none" x="56.5" y="157.5" width="50" height="80"></rect>
                                    <rect id="Rectangle-2" stroke="#AAB1BE" stroke-width="1" fill="none" x="106.5" y="157.5" width="50" height="80"></rect>
                                    <rect id="Rectangle-2" stroke="#AAB1BE" stroke-width="1" fill="none" x="156.5" y="157.5" width="50" height="80"></rect>
                                    <circle id="Oval-4" stroke="#AAB1BE" stroke-width="1" fill="none" cx="23.7958984" cy="93.7958984" r="15.7958984"></circle>
                                    <text id="Search" stroke="none" fill="none" font-family="FranklinGothicURW-Boo, FranklinGothic URW" font-size="10" font-weight="300">
                                        <tspan x="11.235" y="39" fill="#98A3A7">Search</tspan>
                                    </text>
                                    <text id="username" stroke="none" fill="none" font-family="FranklinGothicURW-Boo, FranklinGothic URW" font-size="7" font-weight="300">
                                        <tspan x="9.0935" y="118" fill="#98A3A7">username</tspan>
                                    </text>
                                    <circle id="Oval-4" stroke="#AAB1BE" stroke-width="1" fill="none" cx="64.7958984" cy="93.7958984" r="15.7958984"></circle>
                                    <text id="username" stroke="none" fill="none" font-family="FranklinGothicURW-Boo, FranklinGothic URW" font-size="7" font-weight="300">
                                        <tspan x="50.0935" y="118" fill="#98A3A7">username</tspan>
                                    </text>
                                    <circle id="Oval-4" stroke="#AAB1BE" stroke-width="1" fill="none" cx="105.795898" cy="93.7958984" r="15.7958984"></circle>
                                    <circle id="Oval-4" stroke="#AAB1BE" stroke-width="1" fill="none" cx="17.835" cy="280.835" r="5.83500004"></circle>
                                    <text id="username" stroke="none" fill="none" font-family="FranklinGothicURW-Boo, FranklinGothic URW" font-size="7" font-weight="300">
                                        <tspan x="91.0935" y="118" fill="#98A3A7">username</tspan>
                                    </text>
                                    <text id="username" stroke="none" fill="none" font-family="FranklinGothicURW-Boo, FranklinGothic URW" font-size="7" font-weight="300">
                                        <tspan x="28.0935" y="281" fill="#98A3A7">username</tspan>
                                    </text>
                                    <circle id="Oval-4" stroke="#AAB1BE" stroke-width="1" fill="none" cx="17.835" cy="225.835" r="5.83500004"></circle>
                                    <text id="user" stroke="none" fill="none" font-family="FranklinGothicURW-Boo, FranklinGothic URW" font-size="7" font-weight="300">
                                        <tspan x="28.011" y="226" fill="#98A3A7">user</tspan>
                                    </text>
                                    <circle id="Oval-4" stroke="#AAB1BE" stroke-width="1" fill="none" cx="67.835" cy="225.835" r="5.83500004"></circle>
                                    <text id="user" stroke="none" fill="none" font-family="FranklinGothicURW-Boo, FranklinGothic URW" font-size="7" font-weight="300">
                                        <tspan x="78.011" y="226" fill="#98A3A7">user</tspan>
                                    </text>
                                    <circle id="Oval-4" stroke="#AAB1BE" stroke-width="1" fill="none" cx="117.835" cy="225.835" r="5.83500004"></circle>
                                    <text id="user" stroke="none" fill="none" font-family="FranklinGothicURW-Boo, FranklinGothic URW" font-size="7" font-weight="300">
                                        <tspan x="128.011" y="226" fill="#98A3A7">user</tspan>
                                    </text>
                                    <circle id="Oval-4" stroke="#AAB1BE" stroke-width="1" fill="none" cx="167.835" cy="225.835" r="5.83500004"></circle>
                                    <text id="user" stroke="none" fill="none" font-family="FranklinGothicURW-Boo, FranklinGothic URW" font-size="7" font-weight="300">
                                        <tspan x="178.011" y="226" fill="#98A3A7">user</tspan>
                                    </text>
                                    <circle id="Oval-4" stroke="#AAB1BE" stroke-width="1" fill="none" cx="145.795898" cy="93.7958984" r="15.7958984"></circle>
                                    <text id="username" stroke="none" fill="none" font-family="FranklinGothicURW-Boo, FranklinGothic URW" font-size="7" font-weight="300">
                                        <tspan x="131.0935" y="118" fill="#98A3A7">username</tspan>
                                    </text>
                                    <rect id="Rectangle" stroke="none" fill="#AAB1BE" fill-rule="evenodd" x="76" y="0" width="23" height="2" rx="1"></rect>
                                    <rect id="Rectangle" stroke="none" fill="#AAB1BE" fill-rule="evenodd" x="148" y="0" width="20" height="2" rx="1"></rect>
                                    <rect id="Rectangle" stroke="none" fill="#AAB1BE" fill-rule="evenodd" x="5" y="0" width="20" height="2" rx="1"></rect>
                                    <text id="User-name" stroke="none" fill="none" font-family="FranklinGothic-Medium, Franklin Gothic Medium" font-size="7" font-weight="normal">
                                        <tspan x="36.2902832" y="306" fill="#98A3A7">User name</tspan>
                                    </text>
                                    <text id="Recived-12-min-ago" stroke="none" fill="none" font-family="FranklinGothicURW-Boo, FranklinGothic URW" font-size="6" font-weight="300">
                                        <tspan x="46.348" y="313" fill="#98A3A7">Recived 12 min ago</tspan>
                                    </text>
                                    <circle id="Oval-2" stroke="none" fill="#AAB1BE" fill-rule="evenodd" opacity="0.5" cx="39.5" cy="313.5" r="3.5"></circle>
                                    <circle id="Oval" stroke="#AAB1BE" stroke-width="1" fill="none" cx="20.5" cy="308.5" r="9"></circle>
                                </g>
                            </g>
                            <rect id="Rectangle-3" stroke="none" fill="#E8EAEF" fill-rule="evenodd" mask="url(#mask-10)" x="11" y="279" width="154" height="23"></rect>
                            <g id="Icons-(white-background)" filter="url(#filter-11)" stroke="none" stroke-width="1" fill="none" fill-rule="evenodd" mask="url(#mask-10)">
                                <g transform="translate(16.000000, 282.000000)" id="Icons">
                                    <g>
                                        <g id="Profile" transform="translate(127.701875, 2.347461)" stroke="#AAB1BE" stroke-linecap="round" stroke-linejoin="round">
                                            <path d="M13.1457813,6.57289063 C13.1457813,10.2029764 10.2029764,13.1457813 6.57289063,13.1457813 C2.94280485,13.1457813 0,10.2029764 0,6.57289063 C0,2.94280485 2.94280485,0 6.57289063,0 C10.2029764,0 13.1457813,2.94280485 13.1457813,6.57289063 L13.1457813,6.57289063 Z" id="Stroke-1"></path>
                                            <path d="M8.76385417,5.14876432 C8.76385417,6.35880914 7.78293545,7.33972786 6.57289063,7.33972786 C5.3628458,7.33972786 4.38192708,6.35880914 4.38192708,5.14876432 C4.38192708,3.9387195 5.3628458,2.95780078 6.57289063,2.95780078 C7.78293545,2.95780078 8.76385417,3.9387195 8.76385417,5.14876432 L8.76385417,5.14876432 Z" id="Stroke-3"></path>
                                            <path d="M9.85933594,12.2693958 C9.85933594,10.4618509 8.38043555,8.98295052 6.57289062,8.98295052 L6.57289062,8.98295052 C4.7653457,8.98295052 3.28644531,10.4618509 3.28644531,12.2693958" id="Stroke-5"></path>
                                        </g>
                                        <g id="Stats" transform="translate(94.837422, 2.347461)" stroke-linecap="round" stroke-linejoin="round">
                                            <path d="M2.7634663,12.1116746 C2.7634663,12.8535427 2.15448754,13.4549896 1.4033291,13.4549896 C0.652170671,13.4549896 0.0431919122,12.8535427 0.0431919122,12.1116746 C0.0431919122,11.3698065 0.652170671,10.7683596 1.4033291,10.7683596 C2.15448754,10.7683596 2.7634663,11.3698065 2.7634663,12.1116746 L2.7634663,12.1116746 Z" id="Stroke-1" stroke="#BCBCBC"></path>
                                            <path d="M13.6693123,10.9880125 C13.6693123,11.7298806 13.0603335,12.3313275 12.3091751,12.3313275 C11.5580167,12.3313275 10.9490379,11.7298806 10.9490379,10.9880125 C10.9490379,10.2461444 11.5580167,9.64469744 12.3091751,9.64469744 C13.0603335,9.64469744 13.6693123,10.2461444 13.6693123,10.9880125 L13.6693123,10.9880125 Z" id="Stroke-3" stroke="#BCBCBC"></path>
                                            <path d="M8.21638929,6.76668976 C8.21638929,7.50855788 7.60741053,8.1100048 6.8562521,8.1100048 C6.10509366,8.1100048 5.49611491,7.50855788 5.49611491,6.76668976 C5.49611491,6.02482165 6.10509366,5.42337473 6.8562521,5.42337473 C7.60741053,5.42337473 8.21638929,6.02482165 8.21638929,6.76668976 L8.21638929,6.76668976 Z" id="Stroke-5" stroke="#BCBCBC"></path>
                                            <path d="M19.1222292,1.42169896 C19.1222292,2.16356707 18.5132505,2.76501399 17.762092,2.76501399 C17.0109336,2.76501399 16.4019548,2.16356707 16.4019548,1.42169896 C16.4019548,0.679830841 17.0109336,0.0783839247 17.762092,0.0783839247 C18.5132505,0.0783839247 19.1222292,0.679830841 19.1222292,1.42169896 L19.1222292,1.42169896 Z" id="Stroke-7" stroke="#AAB1BE"></path>
                                            <path d="M2.35656765,11.2917032 L5.95428165,7.73848565" id="Stroke-9" stroke="#AAB1BE"></path>
                                            <path d="M7.974436,7.6143514 L11.1687031,9.99428772" id="Stroke-11" stroke="#AAB1BE"></path>
                                            <path d="M13.1301297,9.91125891 L17.1163594,2.69723927" id="Stroke-13" stroke="#AAB1BE"></path>
                                        </g>
                                        <g id="Stories" transform="translate(61.972969, 0.469492)" stroke="#AAB1BE">
                                            <path d="M0.5,14.0517561 L4.60919298,14.0517561 L4.60919298,1.85853059 L0.5,1.85853059 L0.5,14.0517561 Z" id="Stroke-1-Copy-6"></path>
                                            <path d="M7.07289062,15.4102867 L11.2373047,15.4102867 L11.2373047,0.5 L7.07289062,0.5 L7.07289062,15.4102867 Z" id="Stroke-1-Copy-7"></path>
                                            <path d="M13.6457813,14.0517561 L17.7549742,14.0517561 L17.7549742,1.85853059 L13.6457813,1.85853059 L13.6457813,14.0517561 Z" id="Stroke-1-Copy-8"></path>
                                        </g>
                                        <g id="Camera" transform="translate(31.455977, 2.816953)" stroke="#AAB1BE">
                                            <path d="M13.1457813,6.57289063 C13.1457813,10.2029764 10.2029764,13.1457813 6.57289063,13.1457813 C2.94280485,13.1457813 0,10.2029764 0,6.57289063 C0,2.94280485 2.94280485,0 6.57289063,0 C10.2029764,0 13.1457813,2.94280485 13.1457813,6.57289063 L13.1457813,6.57289063 Z" id="Stroke-1"></path>
                                            <path d="M6.57289062,11.2678125 C3.97994613,11.2678125 1.87796875,9.16583512 1.87796875,6.57289063 C1.87796875,3.97994613 3.97994613,1.87796875 6.57289062,1.87796875 C9.16583512,1.87796875 11.2678125,3.97994613 11.2678125,6.57289063 C11.2678125,9.16583512 9.16583512,11.2678125 6.57289062,11.2678125 Z" id="Stroke-3"></path>
                                        </g>
                                        <g id="Inbox" transform="translate(0.000000, 3.000000)" stroke="#AAB1BE">
                                            <polygon id="Stroke-1" points="0 12.4932422 12.6762891 12.4932422 12.6762891 0.286445313 0 0.286445313"></polygon>
                                            <polyline id="Stroke-3" points="0 5.92035156 3.3802968 5.92035156 3.38034375 7.32882813 9.29594531 7.32882813 9.29594531 5.92035156 12.6762891 5.92035156"></polyline>
                                        </g>
                                    </g>
                                </g>
                            </g>
                        </g>
                    </g>
                    <rect id="Rectangle-14" stroke="#AAB1BE" mask="url(#mask-5)" x="714.5" y="452.5" width="10" height="10"></rect>
                    <rect id="Rectangle-14" stroke="#AAB1BE" mask="url(#mask-5)" x="713.5" y="373.5" width="10" height="10"></rect>
                    <rect id="Rectangle-14" stroke="#AAB1BE" mask="url(#mask-5)" x="718.5" y="322.5" width="10" height="10"></rect>
                    <rect id="Rectangle-15" stroke="#AAB1BE" mask="url(#mask-5)" x="827.5" y="369.5" width="29" height="29"></rect>
                    <rect id="Rectangle-15" stroke="#AAB1BE" mask="url(#mask-5)" x="888.5" y="369.5" width="29" height="29"></rect>
                    <path d="M889.5,370.5 L917.040879,398.040879" id="Line-2" stroke="#AAB1BE" stroke-linecap="square" mask="url(#mask-5)"></path>
                    <path d="M889.5,370.5 L917.040879,398.040879" id="Line-2" stroke="#AAB1BE" stroke-linecap="square" mask="url(#mask-5)" transform="translate(903.500000, 384.500000) scale(-1, 1) translate(-903.500000, -384.500000) "></path>
                    <path d="M828.5,370.5 L856.040879,398.040879" id="Line-2" stroke="#AAB1BE" stroke-linecap="square" mask="url(#mask-5)"></path>
                    <path d="M828.5,370.5 L856.040879,398.040879" id="Line-2" stroke="#AAB1BE" stroke-linecap="square" mask="url(#mask-5)" transform="translate(842.500000, 384.500000) scale(-1, 1) translate(-842.500000, -384.500000) "></path>
                    <text id="532" mask="url(#mask-5)" font-family="FranklinGothicURW-Dem, FranklinGothic URW" font-size="15" font-weight="500" fill="#AAB1BE">
                        <tspan x="829.7925" y="415">532</tspan>
                    </text>
                    <text id="124" mask="url(#mask-5)" font-family="FranklinGothicURW-Dem, FranklinGothic URW" font-size="15" font-weight="500" fill="#AAB1BE">
                        <tspan x="890.7925" y="415">124</tspan>
                    </text>
                    <rect id="Rectangle-16" stroke="#AAB1BE" mask="url(#mask-5)" x="789.5" y="435.5" width="172" height="44"></rect>
                    <rect id="Rectangle-16" stroke="#AAB1BE" mask="url(#mask-5)" x="789.5" y="309.5" width="172" height="170"></rect>
                    <text id="142" mask="url(#mask-5)" font-family="FranklinGothicURW-Boo, FranklinGothic URW" font-size="7" font-weight="300" fill="#98A3A7">
                        <tspan x="829.3365" y="466">142</tspan>
                    </text>
                    <rect id="Rectangle-14" stroke="#AAB1BE" mask="url(#mask-5)" x="830.5" y="448.5" width="10" height="10"></rect>
                    <text id="34" mask="url(#mask-5)" font-family="FranklinGothicURW-Boo, FranklinGothic URW" font-size="7" font-weight="300" fill="#98A3A7">
                        <tspan x="852.391" y="466">34</tspan>
                    </text>
                    <text id="10-min-ago" mask="url(#mask-5)" font-family="FranklinGothicURW-Boo, FranklinGothic URW" font-size="7" font-weight="300" fill="#98A3A7">
                        <tspan x="870.207" y="466">10 min ago</tspan>
                    </text>
                    <rect id="Rectangle-14" stroke="#AAB1BE" mask="url(#mask-5)" x="851.5" y="448.5" width="10" height="10"></rect>
                    <rect id="Rectangle-6" stroke="#AAB1BE" mask="url(#mask-5)" x="799.5" y="444.5" width="18" height="27"></rect>
                    <polyline id="Rectangle-17" stroke="#AAB1BE" mask="url(#mask-5)" transform="translate(946.000000, 458.000000) rotate(-45.000000) translate(-946.000000, -458.000000) " points="950 454 950 462 942 462"></polyline>
                    <rect id="Rectangle-16" stroke="#AAB1BE" mask="url(#mask-5)" x="789.5" y="479.5" width="172" height="44"></rect>
                    <text id="142" mask="url(#mask-5)" font-family="FranklinGothicURW-Boo, FranklinGothic URW" font-size="7" font-weight="300" fill="#98A3A7">
                        <tspan x="829.3365" y="510">142</tspan>
                    </text>
                    <rect id="Rectangle-14" stroke="#AAB1BE" mask="url(#mask-5)" x="830.5" y="492.5" width="10" height="10"></rect>
                    <text id="34" mask="url(#mask-5)" font-family="FranklinGothicURW-Boo, FranklinGothic URW" font-size="7" font-weight="300" fill="#98A3A7">
                        <tspan x="852.391" y="510">34</tspan>
                    </text>
                    <text id="10-min-ago" mask="url(#mask-5)" font-family="FranklinGothicURW-Boo, FranklinGothic URW" font-size="7" font-weight="300" fill="#98A3A7">
                        <tspan x="870.207" y="510">10 min ago</tspan>
                    </text>
                    <rect id="Rectangle-14" stroke="#AAB1BE" mask="url(#mask-5)" x="851.5" y="492.5" width="10" height="10"></rect>
                    <rect id="Rectangle-6" stroke="#AAB1BE" mask="url(#mask-5)" x="799.5" y="488.5" width="18" height="27"></rect>
                    <polyline id="Rectangle-17" stroke="#AAB1BE" mask="url(#mask-5)" transform="translate(946.000000, 502.000000) rotate(-45.000000) translate(-946.000000, -502.000000) " points="950 498 950 506 942 506"></polyline>
                    <rect id="Rectangle-16" stroke="#AAB1BE" mask="url(#mask-5)" x="789.5" y="523.5" width="172" height="44"></rect>
                    <text id="142" mask="url(#mask-5)" font-family="FranklinGothicURW-Boo, FranklinGothic URW" font-size="7" font-weight="300" fill="#98A3A7">
                        <tspan x="829.3365" y="554">142</tspan>
                    </text>
                    <rect id="Rectangle-14" stroke="#AAB1BE" mask="url(#mask-5)" x="830.5" y="536.5" width="10" height="10"></rect>
                    <text id="34" mask="url(#mask-5)" font-family="FranklinGothicURW-Boo, FranklinGothic URW" font-size="7" font-weight="300" fill="#98A3A7">
                        <tspan x="852.391" y="554">34</tspan>
                    </text>
                    <text id="10-min-ago" mask="url(#mask-5)" font-family="FranklinGothicURW-Boo, FranklinGothic URW" font-size="7" font-weight="300" fill="#98A3A7">
                        <tspan x="870.207" y="554">10 min ago</tspan>
                    </text>
                    <rect id="Rectangle-14" stroke="#AAB1BE" mask="url(#mask-5)" x="851.5" y="536.5" width="10" height="10"></rect>
                    <rect id="Rectangle-6" stroke="#AAB1BE" mask="url(#mask-5)" x="799.5" y="532.5" width="18" height="27"></rect>
                    <polyline id="Rectangle-17" stroke="#AAB1BE" mask="url(#mask-5)" transform="translate(946.000000, 546.000000) rotate(-45.000000) translate(-946.000000, -546.000000) " points="950 542 950 550 942 550"></polyline>
                    <rect id="Rectangle-16" stroke="#AAB1BE" mask="url(#mask-5)" x="789.5" y="567.5" width="172" height="44"></rect>
                    <text id="142" mask="url(#mask-5)" font-family="FranklinGothicURW-Boo, FranklinGothic URW" font-size="7" font-weight="300" fill="#98A3A7">
                        <tspan x="829.3365" y="598">142</tspan>
                    </text>
                    <rect id="Rectangle-14" stroke="#AAB1BE" mask="url(#mask-5)" x="830.5" y="580.5" width="10" height="10"></rect>
                    <text id="34" mask="url(#mask-5)" font-family="FranklinGothicURW-Boo, FranklinGothic URW" font-size="7" font-weight="300" fill="#98A3A7">
                        <tspan x="852.391" y="598">34</tspan>
                    </text>
                    <text id="10-min-ago" mask="url(#mask-5)" font-family="FranklinGothicURW-Boo, FranklinGothic URW" font-size="7" font-weight="300" fill="#98A3A7">
                        <tspan x="870.207" y="598">10 min ago</tspan>
                    </text>
                    <rect id="Rectangle-14" stroke="#AAB1BE" mask="url(#mask-5)" x="851.5" y="580.5" width="10" height="10"></rect>
                    <rect id="Rectangle-6" stroke="#AAB1BE" mask="url(#mask-5)" x="799.5" y="576.5" width="18" height="27"></rect>
                    <polyline id="Rectangle-17" stroke="#AAB1BE" mask="url(#mask-5)" transform="translate(946.000000, 590.000000) rotate(-45.000000) translate(-946.000000, -590.000000) " points="950 586 950 594 942 594"></polyline>
                    <rect id="Rectangle-3" fill="#E8EAEF" mask="url(#mask-5)" x="799" y="586" width="154" height="25"></rect>
                    <circle id="Oval-5" fill="#000000" mask="url(#mask-5)" cx="285.5" cy="462.5" r="2.5"></circle>
                    <circle id="Oval-5" fill="#000000" mask="url(#mask-5)" cx="336.5" cy="462.5" r="2.5"></circle>
                    <circle id="Oval-5" fill="#000000" mask="url(#mask-5)" cx="780.5" cy="666.5" r="2.5"></circle>
                    <circle id="Oval-5" fill="#000000" mask="url(#mask-5)" cx="1008.5" cy="666.5" r="2.5"></circle>
                    <circle id="Oval-5" fill="#000000" mask="url(#mask-5)" cx="557.5" cy="667.5" r="2.5"></circle>
                    <circle id="Oval-5" fill="#000000" mask="url(#mask-5)" cx="332.5" cy="667.5" r="2.5"></circle>
                    <circle id="Oval-5" fill="#000000" mask="url(#mask-5)" cx="511.5" cy="462.5" r="2.5"></circle>
                    <circle id="Oval-5" fill="#000000" mask="url(#mask-5)" cx="736.5" cy="462.5" r="2.5"></circle>
                    <circle id="Oval-5" fill="#000000" mask="url(#mask-5)" cx="788.5" cy="462.5" r="2.5"></circle>
                    <circle id="Oval-5" fill="#000000" mask="url(#mask-5)" cx="962.5" cy="462.5" r="2.5"></circle>
                    <circle id="Oval-5" fill="#000000" mask="url(#mask-5)" cx="1014.5" cy="462.5" r="2.5"></circle>
                    <path d="M1012.5,461.5 L962.052007,461.5" id="Line-3" stroke="#000000" stroke-linecap="square" mask="url(#mask-5)"></path>
                    <path d="M785.5,462.5 L735.052007,462.5" id="Line-3" stroke="#000000" stroke-linecap="square" mask="url(#mask-5)"></path>
                    <path d="M565.5,461.5 L515.052007,461.5" id="Line-3" stroke="#000000" stroke-linecap="square" mask="url(#mask-5)"></path>
                    <path d="M333.5,462.5 L283.052007,462.5" id="Line-3" stroke="#000000" stroke-linecap="square" mask="url(#mask-5)"></path>
                    <polyline id="Path-4" stroke="#000000" mask="url(#mask-5)" points="1100.70312 283.5 199.343902 283.5 199.343902 255.891286"></polyline>
                    <circle id="Oval-5" fill="#000000" mask="url(#mask-5)" cx="199.5" cy="256.5" r="2.5"></circle>
                    <circle id="Oval-5" fill="#000000" mask="url(#mask-5)" cx="650.5" cy="283.5" r="2.5"></circle>
                    <circle id="Oval-5" fill="#000000" mask="url(#mask-5)" cx="1102.5" cy="283.5" r="2.5"></circle>
                    <circle id="Oval-5" fill="#000000" mask="url(#mask-5)" cx="1186.5" cy="97.5" r="2.5"></circle>
                    <circle id="Oval-5" fill="#000000" mask="url(#mask-5)" cx="1238.5" cy="97.5" r="2.5"></circle>
                    <circle id="Oval-5" fill="#000000" mask="url(#mask-5)" cx="1239.5" cy="464.5" r="2.5"></circle>
                    <path d="M1220.5,98.5 L1220.5,814.210022" id="Line-5" stroke="#1F1F1F" stroke-linecap="square" mask="url(#mask-5)"></path>
                    <path d="M1239.5,464.5 L1220.4737,464.5" id="Line-6" stroke="#1F1F1F" stroke-linecap="square" mask="url(#mask-5)"></path>
                    <path d="M1239.5,814.5 L1220.4737,814.5" id="Line-6" stroke="#1F1F1F" stroke-linecap="square" mask="url(#mask-5)"></path>
                    <circle id="Oval-5" fill="#000000" mask="url(#mask-5)" cx="1238.5" cy="814.5" r="2.5"></circle>
                    <circle id="Oval-5" fill="#000000" mask="url(#mask-5)" cx="874.5" cy="283.5" r="2.5"></circle>
                    <circle id="Oval-5" fill="#000000" mask="url(#mask-5)" cx="426.5" cy="283.5" r="2.5"></circle>
                    <circle id="Oval-5" fill="#000000" mask="url(#mask-5)" cx="564.5" cy="461.5" r="2.5"></circle>
                    <g id="Icons-(white-background)" filter="url(#filter-12)" mask="url(#mask-5)">
                        <g transform="translate(805.000000, 590.000000)" id="Icons">
                            <g>
                                <g id="Profile" transform="translate(127.701875, 2.347461)" stroke="#AAB1BE" stroke-linecap="round" stroke-linejoin="round">
                                    <path d="M13.1457813,6.57289063 C13.1457813,10.2029764 10.2029764,13.1457813 6.57289063,13.1457813 C2.94280485,13.1457813 0,10.2029764 0,6.57289063 C0,2.94280485 2.94280485,0 6.57289063,0 C10.2029764,0 13.1457813,2.94280485 13.1457813,6.57289063 L13.1457813,6.57289063 Z" id="Stroke-1"></path>
                                    <path d="M8.76385417,5.14876432 C8.76385417,6.35880914 7.78293545,7.33972786 6.57289063,7.33972786 C5.3628458,7.33972786 4.38192708,6.35880914 4.38192708,5.14876432 C4.38192708,3.9387195 5.3628458,2.95780078 6.57289063,2.95780078 C7.78293545,2.95780078 8.76385417,3.9387195 8.76385417,5.14876432 L8.76385417,5.14876432 Z" id="Stroke-3"></path>
                                    <path d="M9.85933594,12.2693958 C9.85933594,10.4618509 8.38043555,8.98295052 6.57289062,8.98295052 L6.57289062,8.98295052 C4.7653457,8.98295052 3.28644531,10.4618509 3.28644531,12.2693958" id="Stroke-5"></path>
                                </g>
                                <g id="Stats" transform="translate(94.837422, 2.347461)" stroke-linecap="round" stroke-linejoin="round">
                                    <path d="M2.7634663,12.1116746 C2.7634663,12.8535427 2.15448754,13.4549896 1.4033291,13.4549896 C0.652170671,13.4549896 0.0431919122,12.8535427 0.0431919122,12.1116746 C0.0431919122,11.3698065 0.652170671,10.7683596 1.4033291,10.7683596 C2.15448754,10.7683596 2.7634663,11.3698065 2.7634663,12.1116746 L2.7634663,12.1116746 Z" id="Stroke-1" stroke="#BCBCBC"></path>
                                    <path d="M13.6693123,10.9880125 C13.6693123,11.7298806 13.0603335,12.3313275 12.3091751,12.3313275 C11.5580167,12.3313275 10.9490379,11.7298806 10.9490379,10.9880125 C10.9490379,10.2461444 11.5580167,9.64469744 12.3091751,9.64469744 C13.0603335,9.64469744 13.6693123,10.2461444 13.6693123,10.9880125 L13.6693123,10.9880125 Z" id="Stroke-3" stroke="#BCBCBC"></path>
                                    <path d="M8.21638929,6.76668976 C8.21638929,7.50855788 7.60741053,8.1100048 6.8562521,8.1100048 C6.10509366,8.1100048 5.49611491,7.50855788 5.49611491,6.76668976 C5.49611491,6.02482165 6.10509366,5.42337473 6.8562521,5.42337473 C7.60741053,5.42337473 8.21638929,6.02482165 8.21638929,6.76668976 L8.21638929,6.76668976 Z" id="Stroke-5" stroke="#BCBCBC"></path>
                                    <path d="M19.1222292,1.42169896 C19.1222292,2.16356707 18.5132505,2.76501399 17.762092,2.76501399 C17.0109336,2.76501399 16.4019548,2.16356707 16.4019548,1.42169896 C16.4019548,0.679830841 17.0109336,0.0783839247 17.762092,0.0783839247 C18.5132505,0.0783839247 19.1222292,0.679830841 19.1222292,1.42169896 L19.1222292,1.42169896 Z" id="Stroke-7" stroke="#AAB1BE"></path>
                                    <path d="M2.35656765,11.2917032 L5.95428165,7.73848565" id="Stroke-9" stroke="#AAB1BE"></path>
                                    <path d="M7.974436,7.6143514 L11.1687031,9.99428772" id="Stroke-11" stroke="#AAB1BE"></path>
                                    <path d="M13.1301297,9.91125891 L17.1163594,2.69723927" id="Stroke-13" stroke="#AAB1BE"></path>
                                </g>
                                <g id="Stories" transform="translate(61.972969, 0.469492)" stroke="#AAB1BE">
                                    <path d="M0.5,14.0517561 L4.60919298,14.0517561 L4.60919298,1.85853059 L0.5,1.85853059 L0.5,14.0517561 Z" id="Stroke-1-Copy-6"></path>
                                    <path d="M7.07289062,15.4102867 L11.2373047,15.4102867 L11.2373047,0.5 L7.07289062,0.5 L7.07289062,15.4102867 Z" id="Stroke-1-Copy-7"></path>
                                    <path d="M13.6457813,14.0517561 L17.7549742,14.0517561 L17.7549742,1.85853059 L13.6457813,1.85853059 L13.6457813,14.0517561 Z" id="Stroke-1-Copy-8"></path>
                                </g>
                                <g id="Camera" transform="translate(31.455977, 2.816953)" stroke="#AAB1BE">
                                    <path d="M13.1457813,6.57289063 C13.1457813,10.2029764 10.2029764,13.1457813 6.57289063,13.1457813 C2.94280485,13.1457813 0,10.2029764 0,6.57289063 C0,2.94280485 2.94280485,0 6.57289063,0 C10.2029764,0 13.1457813,2.94280485 13.1457813,6.57289063 L13.1457813,6.57289063 Z" id="Stroke-1"></path>
                                    <path d="M6.57289062,11.2678125 C3.97994613,11.2678125 1.87796875,9.16583512 1.87796875,6.57289063 C1.87796875,3.97994613 3.97994613,1.87796875 6.57289062,1.87796875 C9.16583512,1.87796875 11.2678125,3.97994613 11.2678125,6.57289063 C11.2678125,9.16583512 9.16583512,11.2678125 6.57289062,11.2678125 Z" id="Stroke-3"></path>
                                </g>
                                <g id="Inbox" transform="translate(0.000000, 3.000000)" stroke="#AAB1BE">
                                    <polygon id="Stroke-1" points="0 12.4932422 12.6762891 12.4932422 12.6762891 0.286445313 0 0.286445313"></polygon>
                                    <polyline id="Stroke-3" points="0 5.92035156 3.3802968 5.92035156 3.38034375 7.32882813 9.29594531 7.32882813 9.29594531 5.92035156 12.6762891 5.92035156"></polyline>
                                </g>
                            </g>
                        </g>
                    </g>
                    <circle id="Oval-6" stroke="#AAB1BE" mask="url(#mask-5)" cx="1042" cy="367" r="19"></circle>
                    <text id="EDIT-PROFILE" mask="url(#mask-5)" font-family="FranklinGothicURW-Dem, FranklinGothic URW" font-size="8" font-weight="500" fill="#98A3A7">
                        <tspan x="1096.756" y="378">EDIT PROFILE</tspan>
                    </text>
                    <text id="FOLLOWERS" mask="url(#mask-5)" font-family="FranklinGothicURW-Dem, FranklinGothic URW" font-size="6" font-weight="500" fill="#98A3A7">
                        <tspan x="1088.443" y="360">FOLLOWERS</tspan>
                    </text>
                    <text id="FRIENDS" mask="url(#mask-5)" font-family="FranklinGothicURW-Dem, FranklinGothic URW" font-size="6" font-weight="500" fill="#98A3A7">
                        <tspan x="1132.162" y="360">FRIENDS</tspan>
                    </text>
                    <text id="87" mask="url(#mask-5)" font-family="FranklinGothicURW-Dem, FranklinGothic URW" font-size="9" font-weight="500" fill="#98A3A7">
                        <tspan x="1099.217" y="352">87</tspan>
                    </text>
                    <text id="43" mask="url(#mask-5)" font-family="FranklinGothicURW-Dem, FranklinGothic URW" font-size="9" font-weight="500" fill="#98A3A7">
                        <tspan x="1139.217" y="352">43</tspan>
                    </text>
                    <rect id="Rectangle-5" stroke="#AAB1BE" mask="url(#mask-5)" x="1072.5" y="369.5" width="101" height="17"></rect>
                    <circle id="Oval-7" fill="#1F1F1F" mask="url(#mask-5)" cx="1122" cy="378" r="5"></circle>
                    <polyline id="Path-5" stroke="#1F1F1F" mask="url(#mask-5)" points="1127.51172 377.5 1203.5 377.5 1203.5 97.5"></polyline>
                    <path d="M1184.5,97.5 L1238.58,97.5" id="Line-4" stroke="#1F1F1F" stroke-linecap="square" mask="url(#mask-5)"></path>
                    <mask id="mask-15" fill="white">
                        <use xlink:href="#path-14"></use>
                    </mask>
                    <use id="Oval-8" fill="url(#radialGradient-13)" xlink:href="#path-14"></use>
                </g>
            </g>
        </g>
    </g>
</svg>
