<svg width="80" height="80" viewBox="0 0 80 80" fill="none" xmlns="http://www.w3.org/2000/svg">
<path d="M62.5 22.5H71.25C72.9076 22.5 74.4973 23.1585 75.6694 24.3306C76.8415 25.5027 77.5 27.0924 77.5 28.75V53.75C77.5 54.5708 77.3383 55.3835 77.0242 56.1418C76.7102 56.9001 76.2498 57.5891 75.6694 58.1694C75.0891 58.7498 74.4001 59.2102 73.6418 59.5242C72.8835 59.8383 72.0708 60 71.25 60H67.5V72.5L50 60H35" stroke="#5ABEE9" stroke-width="2" stroke-miterlimit="10" stroke-linecap="round" stroke-linejoin="round"/>
<path d="M56.25 6.25H8.75C7.0924 6.25 5.50269 6.90848 4.33058 8.08058C3.15848 9.25269 2.5 10.8424 2.5 12.5V41.25C2.5 42.9076 3.15848 44.4973 4.33058 45.6694C5.50269 46.8415 7.0924 47.5 8.75 47.5H15V65L35 47.5H56.25C57.9076 47.5 59.4973 46.8415 60.6694 45.6694C61.8415 44.4973 62.5 42.9076 62.5 41.25V12.5C62.5 10.8424 61.8415 9.25269 60.6694 8.08058C59.4973 6.90848 57.9076 6.25 56.25 6.25Z" stroke="#5ABEE9" stroke-width="2" stroke-miterlimit="10" stroke-linecap="round" stroke-linejoin="round"/>
</svg>
