<svg width="80" height="80" viewBox="0 0 80 80" fill="none" xmlns="http://www.w3.org/2000/svg">
<path d="M62.5 41.25C70.7843 41.25 77.5 34.5343 77.5 26.25C77.5 17.9657 70.7843 11.25 62.5 11.25C54.2157 11.25 47.5 17.9657 47.5 26.25C47.5 34.5343 54.2157 41.25 62.5 41.25Z" stroke="#5ABEE9" stroke-width="2" stroke-miterlimit="10" stroke-linecap="round" stroke-linejoin="round"/>
<path d="M46.25 46.25H18.75V73.75H46.25V46.25Z" stroke="#5ABEE9" stroke-width="2" stroke-miterlimit="10" stroke-linecap="round" stroke-linejoin="round"/>
<path d="M5 33.75L21.25 7.5L37.5 33.75H5Z" stroke="#5ABEE9" stroke-width="2" stroke-miterlimit="10" stroke-linecap="round" stroke-linejoin="round"/>
</svg>
