<svg width="511px" height="261px" viewBox="0 0 511 261" version="1.1" xmlns="http://www.w3.org/2000/svg" xmlns:xlink="http://www.w3.org/1999/xlink">
    <defs>
        <rect id="path-1" x="0" y="0" width="145" height="49" rx="24.5"></rect>
        <mask id="mask-2" maskContentUnits="userSpaceOnUse" maskUnits="objectBoundingBox" x="0" y="0" width="145" height="49" fill="white">
            <use xlink:href="#path-1"></use>
        </mask>
        <mask id="mask-4" maskContentUnits="userSpaceOnUse" maskUnits="objectBoundingBox" x="0" y="0" width="145" height="49" fill="white">
            <use xlink:href="#path-1"></use>
        </mask>
        <rect id="path-5" x="0" y="0" width="167" height="49" rx="24.5"></rect>
        <mask id="mask-6" maskContentUnits="userSpaceOnUse" maskUnits="objectBoundingBox" x="0" y="0" width="167" height="49" fill="white">
            <use xlink:href="#path-5"></use>
        </mask>
        <mask id="mask-8" maskContentUnits="userSpaceOnUse" maskUnits="objectBoundingBox" x="0" y="0" width="167" height="49" fill="white">
            <use xlink:href="#path-5"></use>
        </mask>
    </defs>
    <g stroke="none" stroke-width="1" fill="none" fill-rule="evenodd">
        <g id="08_li5_Casestudy" transform="translate(-260.000000, -6442.000000)">
            <g id="brand-style-elements" transform="translate(260.000000, 5296.000000)">
                <g id="buttons" transform="translate(0.000000, 1066.000000)">
                    <g transform="translate(0.000000, 80.000000)">
                        <g id="Main-CTA">
                            <rect id="BG" fill="#ED193C" x="0" y="0" width="511" height="72"></rect>
                            <g id="Content" transform="translate(172.000000, 26.000000)" fill="#FFFFFF">
                                <path d="M62.31,18 C62.1486659,18 62.0093339,17.9413339 61.892,17.824 C61.7746661,17.7066661 61.716,17.5673341 61.716,17.406 L61.716,3.194 C61.716,3.03266586 61.7746661,2.89333392 61.892,2.776 C62.0093339,2.65866608 62.1486659,2.6 62.31,2.6 L68.8,2.6 C69.7386714,2.6 70.5233302,2.74299857 71.154,3.029 C71.7846698,3.31500143 72.2906648,3.67433117 72.672,4.107 C73.0533352,4.53966883 73.3283325,5.00899747 73.497,5.515 C73.6656675,6.02100253 73.75,6.4939978 73.75,6.934 C73.75,7.3740022 73.6913339,7.76633161 73.574,8.111 C73.4566661,8.45566839 73.3136675,8.74899879 73.145,8.991 C72.9763325,9.23300121 72.8076675,9.43466586 72.639,9.596 C72.4703325,9.75733414 72.3346672,9.86733304 72.232,9.926 C72.6866689,10.2340015 73.1046648,10.6703305 73.486,11.235 C73.8673352,11.7996695 74.058,12.5146623 74.058,13.38 C74.058,13.9373361 73.9553344,14.4909973 73.75,15.041 C73.5446656,15.5910028 73.244002,16.0859978 72.848,16.526 C72.451998,16.9660022 71.957003,17.3216653 71.363,17.593 C70.768997,17.8643347 70.0833372,18 69.306,18 L62.31,18 Z M70.78,7.044 C70.78,6.48666388 70.6040018,6.06500143 70.252,5.779 C69.8999982,5.49299857 69.3426705,5.35 68.58,5.35 L64.686,5.35 L64.686,8.738 L68.58,8.738 C69.3426705,8.738 69.8999982,8.59500143 70.252,8.309 C70.6040018,8.02299857 70.78,7.60133612 70.78,7.044 L70.78,7.044 Z M64.686,15.25 L68.756,15.25 C69.5626707,15.25 70.1529981,15.0776684 70.527,14.733 C70.9010019,14.3883316 71.088,13.9373361 71.088,13.38 C71.088,12.8226639 70.8936686,12.3680018 70.505,12.016 C70.1163314,11.6639982 69.5333372,11.488 68.756,11.488 L64.686,11.488 L64.686,15.25 Z M89.1330768,2.6 C89.294411,2.6 89.4337429,2.65866608 89.5510768,2.776 C89.6684108,2.89333392 89.7270768,3.03266586 89.7270768,3.194 L89.7270768,12.214 C89.7270768,13.1233379 89.5950782,13.944663 89.3310768,14.678 C89.0670755,15.411337 88.6710795,16.0419974 88.1430768,16.57 C87.6150742,17.0980026 86.9550808,17.5049986 86.1630768,17.791 C85.3710729,18.0770014 84.4544154,18.22 83.4130768,18.22 C82.3570716,18.22 81.4367474,18.0770014 80.6520768,17.791 C79.8674062,17.5049986 79.2110795,17.0980026 78.6830768,16.57 C78.1550742,16.0419974 77.7627448,15.411337 77.5060768,14.678 C77.2494089,13.944663 77.1210768,13.1233379 77.1210768,12.214 L77.1210768,3.194 C77.1210768,3.03266586 77.1797429,2.89333392 77.2970768,2.776 C77.4144108,2.65866608 77.5537427,2.6 77.7150768,2.6 L79.4970768,2.6 C79.658411,2.6 79.7977429,2.65866608 79.9150768,2.776 C80.0324108,2.89333392 80.0910768,3.03266586 80.0910768,3.194 L80.0910768,12.104 C80.0910768,12.7053363 80.1717427,13.2186645 80.3330768,13.644 C80.494411,14.0693355 80.721742,14.4176653 81.0150768,14.689 C81.3084116,14.9603347 81.6604081,15.1583327 82.0710768,15.283 C82.4817456,15.4076673 82.9290744,15.47 83.4130768,15.47 C83.8970793,15.47 84.3480747,15.4076673 84.7660768,15.283 C85.1840789,15.1583327 85.539742,14.9603347 85.8330768,14.689 C86.1264116,14.4176653 86.3574093,14.0693355 86.5260768,13.644 C86.6947443,13.2186645 86.7790768,12.7053363 86.7790768,12.104 L86.7790768,3.194 C86.7790768,3.03266586 86.8377429,2.89333392 86.9550768,2.776 C87.0724108,2.65866608 87.2117427,2.6 87.3730768,2.6 L89.1330768,2.6 Z M105.176154,2.6 C105.337488,2.6 105.47682,2.65866608 105.594154,2.776 C105.711488,2.89333392 105.770154,3.03266586 105.770154,3.194 C105.770154,3.2673337 105.755487,3.33333304 105.726154,3.392 L100.512154,12.566 L100.512154,17.406 C100.512154,17.5673341 100.453488,17.7066661 100.336154,17.824 C100.21882,17.9413339 100.079488,18 99.9181537,18 L98.1581537,18 C97.9968195,18 97.8574876,17.9413339 97.7401537,17.824 C97.6228198,17.7066661 97.5641537,17.5673341 97.5641537,17.406 L97.5641537,12.566 L92.3501537,3.392 C92.3208202,3.33333304 92.3061537,3.2673337 92.3061537,3.194 C92.3061537,3.03266586 92.3648198,2.89333392 92.4821537,2.776 C92.5994876,2.65866608 92.7388195,2.6 92.9001537,2.6 L94.5501537,2.6 C94.8434885,2.6 95.0634863,2.6733326 95.2101537,2.82 C95.3568211,2.9666674 95.4448202,3.0766663 95.4741537,3.15 L99.0381537,9.376 L102.602154,3.15 C102.631487,3.0766663 102.719486,2.9666674 102.866154,2.82 C103.012821,2.6733326 103.232819,2.6 103.526154,2.6 L105.176154,2.6 Z M123.248307,18 C122.998973,18 122.808308,17.9340007 122.676307,17.802 C122.544307,17.6699993 122.448974,17.5673337 122.390307,17.494 L116.230307,8.342 L116.230307,17.406 C116.230307,17.5673341 116.171641,17.7066661 116.054307,17.824 C115.936973,17.9413339 115.797641,18 115.636307,18 L113.854307,18 C113.692973,18 113.553641,17.9413339 113.436307,17.824 C113.318973,17.7066661 113.260307,17.5673341 113.260307,17.406 L113.260307,3.194 C113.260307,3.03266586 113.318973,2.89333392 113.436307,2.776 C113.553641,2.65866608 113.692973,2.6 113.854307,2.6 L115.394307,2.6 C115.643642,2.6 115.834307,2.66599934 115.966307,2.798 C116.098308,2.93000066 116.19364,3.0326663 116.252307,3.106 L122.412307,12.258 L122.412307,3.194 C122.412307,3.03266586 122.470973,2.89333392 122.588307,2.776 C122.705641,2.65866608 122.844973,2.6 123.006307,2.6 L124.788307,2.6 C124.949641,2.6 125.088973,2.65866608 125.206307,2.776 C125.323641,2.89333392 125.382307,3.03266586 125.382307,3.194 L125.382307,17.406 C125.382307,17.5673341 125.323641,17.7066661 125.206307,17.824 C125.088973,17.9413339 124.949641,18 124.788307,18 L123.248307,18 Z M128.709384,8.342 C128.753384,7.52066256 128.91105,6.74700363 129.182384,6.021 C129.453719,5.29499637 129.853382,4.66433601 130.381384,4.129 C130.909387,3.59366399 131.56938,3.16833491 132.361384,2.853 C133.153388,2.53766509 134.092045,2.38 135.177384,2.38 C136.248056,2.38 137.17938,2.53399846 137.971384,2.842 C138.763388,3.15000154 139.423382,3.57533062 139.951384,4.118 C140.479387,4.66066938 140.882716,5.29132974 141.161384,6.01 C141.440052,6.72867026 141.601384,7.50599582 141.645384,8.342 C141.660051,8.62066806 141.671051,8.92866498 141.678384,9.266 C141.685718,9.60333502 141.689384,9.95166487 141.689384,10.311 C141.689384,10.6703351 141.685718,11.018665 141.678384,11.356 C141.671051,11.693335 141.660051,12.0013319 141.645384,12.28 C141.601384,13.1013374 141.443719,13.8749964 141.172384,14.601 C140.90105,15.3270036 140.501387,15.957664 139.973384,16.493 C139.445382,17.028336 138.781722,17.4499985 137.982384,17.758 C137.183047,18.0660015 136.248056,18.22 135.177384,18.22 C134.092045,18.22 133.153388,18.0660015 132.361384,17.758 C131.56938,17.4499985 130.909387,17.028336 130.381384,16.493 C129.853382,15.957664 129.453719,15.3270036 129.182384,14.601 C128.91105,13.8749964 128.753384,13.1013374 128.709384,12.28 C128.694717,12.0013319 128.683718,11.693335 128.676384,11.356 C128.669051,11.018665 128.665384,10.6703351 128.665384,10.311 C128.665384,9.95166487 128.669051,9.60333502 128.676384,9.266 C128.683718,8.92866498 128.694717,8.62066806 128.709384,8.342 L128.709384,8.342 Z M138.675384,8.452 C138.616717,7.39599472 138.275721,6.57833623 137.652384,5.999 C137.029048,5.41966377 136.204056,5.13 135.177384,5.13 C134.150712,5.13 133.325721,5.41966377 132.702384,5.999 C132.079048,6.57833623 131.738051,7.39599472 131.679384,8.452 C131.650051,9.00933612 131.635384,9.62899659 131.635384,10.311 C131.635384,10.9930034 131.650051,11.6126639 131.679384,12.17 C131.738051,13.2260053 132.079048,14.0399971 132.702384,14.612 C133.325721,15.1840029 134.150712,15.47 135.177384,15.47 C136.204056,15.47 137.029048,15.1840029 137.652384,14.612 C138.275721,14.0399971 138.616717,13.2260053 138.675384,12.17 C138.704718,11.6126639 138.719384,10.9930034 138.719384,10.311 C138.719384,9.62899659 138.704718,9.00933612 138.675384,8.452 L138.675384,8.452 Z M151.924461,10.674 L150.032461,17.252 C149.959127,17.4720011 149.867462,17.651666 149.757461,17.791 C149.64746,17.930334 149.482462,18 149.262461,18 L147.480461,18 C147.26046,18 147.088128,17.930334 146.963461,17.791 C146.838794,17.651666 146.754461,17.4720011 146.710461,17.252 L143.894461,3.37 C143.879794,3.2966663 143.872461,3.23800022 143.872461,3.194 C143.872461,3.03266586 143.931127,2.89333392 144.048461,2.776 C144.165795,2.65866608 144.305127,2.6 144.466461,2.6 L146.094461,2.6 C146.241128,2.6 146.38046,2.64399956 146.512461,2.732 C146.644462,2.82000044 146.732461,2.9739989 146.776461,3.194 L148.624461,12.522 L150.252461,6.648 C150.281795,6.54533282 150.35146,6.41333414 150.461461,6.252 C150.571462,6.09066586 150.75846,6.01 151.022461,6.01 L152.826461,6.01 C153.090462,6.01 153.27746,6.09066586 153.387461,6.252 C153.497462,6.41333414 153.567128,6.54533282 153.596461,6.648 L155.224461,12.522 L157.072461,3.194 C157.116461,2.9739989 157.20446,2.82000044 157.336461,2.732 C157.468462,2.64399956 157.607794,2.6 157.754461,2.6 L159.382461,2.6 C159.543795,2.6 159.683127,2.65866608 159.800461,2.776 C159.917795,2.89333392 159.976461,3.03266586 159.976461,3.194 C159.976461,3.23800022 159.969128,3.2966663 159.954461,3.37 L157.138461,17.252 C157.094461,17.4720011 157.010128,17.651666 156.885461,17.791 C156.760794,17.930334 156.588462,18 156.368461,18 L154.586461,18 C154.36646,18 154.201462,17.930334 154.091461,17.791 C153.98146,17.651666 153.889795,17.4720011 153.816461,17.252 L151.924461,10.674 Z" id="BUY-NOW"></path>
                                <path d="M25.4883385,16.5072338 C24.9002911,16.5072338 24.423094,16.0286849 24.423094,15.4419894 C24.423094,14.853942 24.9002911,14.3767449 25.4883385,14.3767449 C26.0763859,14.3767449 26.5535829,14.853942 26.5535829,15.4419894 C26.5535829,16.0286849 26.0763859,16.5072338 25.4883385,16.5072338 M15.8362502,16.5072338 C15.2495547,16.5072338 14.7710058,16.0286849 14.7710058,15.4419894 C14.7710058,14.853942 15.2495547,14.3767449 15.8362502,14.3767449 C16.4242976,14.3767449 16.9014947,14.853942 16.9014947,15.4419894 C16.9014947,16.0286849 16.4242976,16.5072338 15.8362502,16.5072338 M31.0862793,9.66425474 C31.0862793,9.42903578 31.06465,9.01267119 31.0362615,8.48815995 C30.9902991,7.67165277 30.9281148,6.56855697 30.9281148,5.50060883 C30.9281148,3.39174922 29.3545811,1.73980918 27.347109,1.73980918 L14.1099594,1.73980918 C13.3637475,1.73980918 12.7581263,2.34543041 12.7581263,3.09164227 C12.7581263,3.83785413 13.3637475,4.44347536 14.1099594,4.44347536 L27.347109,4.44347536 C27.8635092,4.44347536 28.2244486,4.87741378 28.2244486,5.50060883 C28.2244486,6.62263029 28.2879848,7.78115125 28.335299,8.63821343 C28.3609838,9.09513301 28.3826131,9.45877611 28.3826131,9.66425474 C28.3826131,11.0404208 27.3809048,11.6582085 26.6698406,11.6582085 L23.8350466,11.6582085 C13.205583,11.2458995 10.0422936,3.82974314 9.37854357,2.1859141 C9.36096974,2.14130361 9.34339591,2.12237795 9.32717391,2.08858212 C8.90269833,0.97196799 7.90504551,-4.26325641e-14 6.35043746,-4.26325641e-14 L1.93940609,-4.26325641e-14 C1.1918424,-4.26325641e-14 0.587573007,0.605621223 0.587573007,1.35183309 C0.587573007,2.09804495 1.1918424,2.70366617 1.93940609,2.70366617 L6.35043746,2.70366617 C6.62350774,2.70366617 6.79113504,2.87129348 6.8506157,3.20249258 C7.48462542,6.74023977 9.00814131,12.2962738 12.4052979,13.9008996 C12.1930601,14.3726894 12.0673396,14.8917933 12.0673396,15.4419894 C12.0673396,17.5211086 13.7584828,19.2109 15.8362502,19.2109 C17.9153695,19.2109 19.6051609,17.5211086 19.6051609,15.4419894 C19.6051609,15.0634761 19.5335137,14.7065922 19.4294226,14.3618747 L21.896518,14.3618747 C21.7924268,14.7065922 21.7194278,15.0634761 21.7194278,15.4419894 C21.7194278,17.5211086 23.4092192,19.2109 25.4883385,19.2109 C27.5674578,19.2109 29.2572491,17.5211086 29.2572491,15.4419894 C29.2572491,14.8228498 29.0936773,14.2483207 28.828718,13.7319205 C30.100793,12.9735421 31.0862793,11.5622284 31.0862793,9.66425474" id="Page-1-Copy-2"></path>
                            </g>
                        </g>
                        <g id="Main-CTA-Copy" transform="translate(0.000000, 72.000000)">
                            <rect id="BG" fill="#F8EC39" x="0" y="0" width="511" height="72"></rect>
                            <g id="Content" transform="translate(176.000000, 25.000000)">
                                <g id="Group">
                                    <path d="M62.276,14.116 C62.3053335,13.9253324 62.3823327,13.7823338 62.507,13.687 C62.6316673,13.5916662 62.7673326,13.544 62.914,13.544 L64.696,13.544 C64.8573341,13.544 65.0003327,13.5989995 65.125,13.709 C65.2496673,13.8190006 65.3046667,13.9619991 65.29,14.138 C65.2459998,14.7393363 65.0956679,15.3406637 64.839,15.942 C64.582332,16.5433363 64.1900026,17.0859976 63.662,17.57 C63.1339974,18.0540024 62.4666707,18.4499985 61.66,18.758 C60.8533293,19.0660015 59.8780057,19.22 58.734,19.22 C57.7219949,19.22 56.8273372,19.0696682 56.05,18.769 C55.2726628,18.4683318 54.6126694,18.050336 54.07,17.515 C53.5273306,16.979664 53.1056682,16.3380037 52.805,15.59 C52.5043318,14.8419963 52.324667,14.0280044 52.266,13.148 C52.2366665,12.5906639 52.222,11.97467 52.222,11.3 C52.222,10.62533 52.2366665,10.0093361 52.266,9.452 C52.324667,8.5719956 52.5043318,7.75800374 52.805,7.01 C53.1056682,6.26199626 53.5273306,5.62033601 54.07,5.085 C54.6126694,4.54966399 55.2726628,4.13166817 56.05,3.831 C56.8273372,3.53033183 57.7219949,3.38 58.734,3.38 C59.8780057,3.38 60.8533293,3.53399846 61.66,3.842 C62.4666707,4.15000154 63.1339974,4.54599758 63.662,5.03 C64.1900026,5.51400242 64.582332,6.06033029 64.839,6.669 C65.0956679,7.27766971 65.2459998,7.8753304 65.29,8.462 C65.3046667,8.63800088 65.2496673,8.78099945 65.125,8.891 C65.0003327,9.00100055 64.8573341,9.056 64.696,9.056 L62.914,9.056 C62.7673326,9.056 62.6280007,9.00833381 62.496,8.913 C62.3639993,8.81766619 62.2833335,8.67466762 62.254,8.484 C62.2099998,8.1906652 62.1073341,7.90466806 61.946,7.626 C61.7846659,7.34733194 61.5646681,7.0980011 61.286,6.878 C61.0073319,6.6579989 60.6553355,6.47833403 60.23,6.339 C59.8046645,6.19966597 59.3060029,6.13 58.734,6.13 C58.1619971,6.13 57.6633355,6.21799912 57.238,6.394 C56.8126645,6.57000088 56.4570014,6.8046652 56.171,7.098 C55.8849986,7.3913348 55.6650008,7.74333128 55.511,8.154 C55.3569992,8.56466872 55.2653335,8.99733106 55.236,9.452 C55.2066665,10.0093361 55.192,10.62533 55.192,11.3 C55.192,11.97467 55.2066665,12.5906639 55.236,13.148 C55.2653335,13.6173357 55.3569992,14.0536647 55.511,14.457 C55.6650008,14.8603354 55.8849986,15.2086652 56.171,15.502 C56.4570014,15.7953348 56.8126645,16.0299991 57.238,16.206 C57.6633355,16.3820009 58.1619971,16.47 58.734,16.47 C59.3060029,16.47 59.8046645,16.400334 60.23,16.261 C60.6553355,16.121666 61.0109986,15.9420011 61.297,15.722 C61.5830014,15.5019989 61.8066659,15.2526681 61.968,14.974 C62.1293341,14.6953319 62.2319998,14.4093348 62.276,14.116 L62.276,14.116 Z M67.7590768,9.342 C67.8030771,8.52066256 67.9607421,7.74700363 68.2320768,7.021 C68.5034115,6.29499637 68.9030742,5.66433601 69.4310768,5.129 C69.9590795,4.59366399 70.6190729,4.16833491 71.4110768,3.853 C72.2030808,3.53766509 73.1417381,3.38 74.2270768,3.38 C75.2977489,3.38 76.2290729,3.53399846 77.0210768,3.842 C77.8130808,4.15000154 78.4730742,4.57533062 79.0010768,5.118 C79.5290795,5.66066938 79.9324088,6.29132974 80.2110768,7.01 C80.4897449,7.72867026 80.6510766,8.50599582 80.6950768,9.342 C80.7097436,9.62066806 80.7207435,9.92866498 80.7280768,10.266 C80.7354102,10.603335 80.7390768,10.9516649 80.7390768,11.311 C80.7390768,11.6703351 80.7354102,12.018665 80.7280768,12.356 C80.7207435,12.693335 80.7097436,13.0013319 80.6950768,13.28 C80.6510766,14.1013374 80.4934115,14.8749964 80.2220768,15.601 C79.9507421,16.3270036 79.5510795,16.957664 79.0230768,17.493 C78.4950742,18.028336 77.8314142,18.4499985 77.0320768,18.758 C76.2327395,19.0660015 75.2977489,19.22 74.2270768,19.22 C73.1417381,19.22 72.2030808,19.0660015 71.4110768,18.758 C70.6190729,18.4499985 69.9590795,18.028336 69.4310768,17.493 C68.9030742,16.957664 68.5034115,16.3270036 68.2320768,15.601 C67.9607421,14.8749964 67.8030771,14.1013374 67.7590768,13.28 C67.7444101,13.0013319 67.7334102,12.693335 67.7260768,12.356 C67.7187435,12.018665 67.7150768,11.6703351 67.7150768,11.311 C67.7150768,10.9516649 67.7187435,10.603335 67.7260768,10.266 C67.7334102,9.92866498 67.7444101,9.62066806 67.7590768,9.342 L67.7590768,9.342 Z M77.7250768,9.452 C77.6664099,8.39599472 77.3254133,7.57833623 76.7020768,6.999 C76.0787404,6.41966377 75.2537486,6.13 74.2270768,6.13 C73.200405,6.13 72.3754133,6.41966377 71.7520768,6.999 C71.1287404,7.57833623 70.7877438,8.39599472 70.7290768,9.452 C70.6997434,10.0093361 70.6850768,10.6289966 70.6850768,11.311 C70.6850768,11.9930034 70.6997434,12.6126639 70.7290768,13.17 C70.7877438,14.2260053 71.1287404,15.0399971 71.7520768,15.612 C72.3754133,16.1840029 73.200405,16.47 74.2270768,16.47 C75.2537486,16.47 76.0787404,16.1840029 76.7020768,15.612 C77.3254133,15.0399971 77.6664099,14.2260053 77.7250768,13.17 C77.7544103,12.6126639 77.7690768,11.9930034 77.7690768,11.311 C77.7690768,10.6289966 77.7544103,10.0093361 77.7250768,9.452 L77.7250768,9.452 Z M91.2381537,11.454 L95.4181537,4.194 C95.4768206,4.1206663 95.5758196,4.00333414 95.7151537,3.842 C95.8544877,3.68066586 96.0708189,3.6 96.3641537,3.6 L97.8601537,3.6 C98.0214878,3.6 98.1608198,3.65866608 98.2781537,3.776 C98.3954876,3.89333392 98.4541537,4.03266586 98.4541537,4.194 L98.4541537,18.406 C98.4541537,18.5673341 98.3954876,18.7066661 98.2781537,18.824 C98.1608198,18.9413339 98.0214878,19 97.8601537,19 L96.0781537,19 C95.9168195,19 95.7774876,18.9413339 95.6601537,18.824 C95.5428198,18.7066661 95.4841537,18.5673341 95.4841537,18.406 L95.4841537,9.804 L92.6241537,14.754 C92.55082,14.8713339 92.4481543,14.9923327 92.3161537,15.117 C92.184153,15.2416673 92.015488,15.304 91.8101537,15.304 L90.6661537,15.304 C90.4608193,15.304 90.2921543,15.2416673 90.1601537,15.117 C90.028153,14.9923327 89.9254874,14.8713339 89.8521537,14.754 L86.9921537,9.804 L86.9921537,18.406 C86.9921537,18.5673341 86.9334876,18.7066661 86.8161537,18.824 C86.6988198,18.9413339 86.5594878,19 86.3981537,19 L84.6161537,19 C84.4548195,19 84.3154876,18.9413339 84.1981537,18.824 C84.0808198,18.7066661 84.0221537,18.5673341 84.0221537,18.406 L84.0221537,4.194 C84.0221537,4.03266586 84.0808198,3.89333392 84.1981537,3.776 C84.3154876,3.65866608 84.4548195,3.6 84.6161537,3.6 L86.1121537,3.6 C86.4054885,3.6 86.6218196,3.68066586 86.7611537,3.842 C86.9004877,4.00333414 86.9994867,4.1206663 87.0581537,4.194 L91.2381537,11.454 Z M109.525231,11.454 L113.705231,4.194 C113.763897,4.1206663 113.862896,4.00333414 114.002231,3.842 C114.141565,3.68066586 114.357896,3.6 114.651231,3.6 L116.147231,3.6 C116.308565,3.6 116.447897,3.65866608 116.565231,3.776 C116.682564,3.89333392 116.741231,4.03266586 116.741231,4.194 L116.741231,18.406 C116.741231,18.5673341 116.682564,18.7066661 116.565231,18.824 C116.447897,18.9413339 116.308565,19 116.147231,19 L114.365231,19 C114.203896,19 114.064564,18.9413339 113.947231,18.824 C113.829897,18.7066661 113.771231,18.5673341 113.771231,18.406 L113.771231,9.804 L110.911231,14.754 C110.837897,14.8713339 110.735231,14.9923327 110.603231,15.117 C110.47123,15.2416673 110.302565,15.304 110.097231,15.304 L108.953231,15.304 C108.747896,15.304 108.579231,15.2416673 108.447231,15.117 C108.31523,14.9923327 108.212564,14.8713339 108.139231,14.754 L105.279231,9.804 L105.279231,18.406 C105.279231,18.5673341 105.220564,18.7066661 105.103231,18.824 C104.985897,18.9413339 104.846565,19 104.685231,19 L102.903231,19 C102.741896,19 102.602564,18.9413339 102.485231,18.824 C102.367897,18.7066661 102.309231,18.5673341 102.309231,18.406 L102.309231,4.194 C102.309231,4.03266586 102.367897,3.89333392 102.485231,3.776 C102.602564,3.65866608 102.741896,3.6 102.903231,3.6 L104.399231,3.6 C104.692565,3.6 104.908896,3.68066586 105.048231,3.842 C105.187565,4.00333414 105.286564,4.1206663 105.345231,4.194 L109.525231,11.454 Z M130.848307,16.25 C131.009641,16.25 131.148973,16.3086661 131.266307,16.426 C131.383641,16.5433339 131.442307,16.6826659 131.442307,16.844 L131.442307,18.406 C131.442307,18.5673341 131.383641,18.7066661 131.266307,18.824 C131.148973,18.9413339 131.009641,19 130.848307,19 L121.190307,19 C121.028973,19 120.889641,18.9413339 120.772307,18.824 C120.654973,18.7066661 120.596307,18.5673341 120.596307,18.406 L120.596307,4.194 C120.596307,4.03266586 120.654973,3.89333392 120.772307,3.776 C120.889641,3.65866608 121.028973,3.6 121.190307,3.6 L130.672307,3.6 C130.833641,3.6 130.972973,3.65866608 131.090307,3.776 C131.207641,3.89333392 131.266307,4.03266586 131.266307,4.194 L131.266307,5.756 C131.266307,5.91733414 131.207641,6.05666608 131.090307,6.174 C130.972973,6.29133392 130.833641,6.35 130.672307,6.35 L123.566307,6.35 L123.566307,9.848 L130.188307,9.848 C130.349641,9.848 130.488973,9.90666608 130.606307,10.024 C130.723641,10.1413339 130.782307,10.2806659 130.782307,10.442 L130.782307,12.004 C130.782307,12.1653341 130.723641,12.3046661 130.606307,12.422 C130.488973,12.5393339 130.349641,12.598 130.188307,12.598 L123.566307,12.598 L123.566307,16.25 L130.848307,16.25 Z M144.581384,19 C144.33205,19 144.141385,18.9340007 144.009384,18.802 C143.877384,18.6699993 143.782051,18.5673337 143.723384,18.494 L137.563384,9.342 L137.563384,18.406 C137.563384,18.5673341 137.504718,18.7066661 137.387384,18.824 C137.27005,18.9413339 137.130718,19 136.969384,19 L135.187384,19 C135.02605,19 134.886718,18.9413339 134.769384,18.824 C134.65205,18.7066661 134.593384,18.5673341 134.593384,18.406 L134.593384,4.194 C134.593384,4.03266586 134.65205,3.89333392 134.769384,3.776 C134.886718,3.65866608 135.02605,3.6 135.187384,3.6 L136.727384,3.6 C136.976719,3.6 137.167384,3.66599934 137.299384,3.798 C137.431385,3.93000066 137.526717,4.0326663 137.585384,4.106 L143.745384,13.258 L143.745384,4.194 C143.745384,4.03266586 143.80405,3.89333392 143.921384,3.776 C144.038718,3.65866608 144.17805,3.6 144.339384,3.6 L146.121384,3.6 C146.282718,3.6 146.42205,3.65866608 146.539384,3.776 C146.656718,3.89333392 146.715384,4.03266586 146.715384,4.194 L146.715384,18.406 C146.715384,18.5673341 146.656718,18.7066661 146.539384,18.824 C146.42205,18.9413339 146.282718,19 146.121384,19 L144.581384,19 Z M160.822461,3.6 C160.983795,3.6 161.123127,3.65866608 161.240461,3.776 C161.357795,3.89333392 161.416461,4.03266586 161.416461,4.194 L161.416461,5.756 C161.416461,5.91733414 161.357795,6.05666608 161.240461,6.174 C161.123127,6.29133392 160.983795,6.35 160.822461,6.35 L156.862461,6.35 L156.862461,18.406 C156.862461,18.5673341 156.803795,18.7066661 156.686461,18.824 C156.569127,18.9413339 156.429795,19 156.268461,19 L154.486461,19 C154.325127,19 154.185795,18.9413339 154.068461,18.824 C153.951127,18.7066661 153.892461,18.5673341 153.892461,18.406 L153.892461,6.35 L149.932461,6.35 C149.771127,6.35 149.631795,6.29133392 149.514461,6.174 C149.397127,6.05666608 149.338461,5.91733414 149.338461,5.756 L149.338461,4.194 C149.338461,4.03266586 149.397127,3.89333392 149.514461,3.776 C149.631795,3.65866608 149.771127,3.6 149.932461,3.6 L160.822461,3.6 Z" id="COMMENT" fill="#340E14"></path>
                                    <path d="M15.4239386,16.7920354 C8.17485705,16.7920354 3.5781407,13.3832047 3.5781407,9.9820688 C3.5781407,6.24748826 9.12860274,3.09258849 15.697315,3.09258849 C22.2660273,3.09258849 27.8149535,6.24748826 27.8149535,9.9820688 C27.8149535,13.5242774 22.6730202,16.7920354 15.4239386,16.7920354 M15.697315,0.489154937 C7.16428593,0.489154937 0.248477801,4.74057475 0.248477801,9.98463376 C0.248477801,14.8029096 6.09228192,18.7734663 13.6608145,19.3852091 C14.4855512,19.451898 15.1075592,20.0431211 15.1075592,20.7343776 L15.1075592,23.628934 C15.1075592,24.3035183 16.0659124,24.6587651 16.6648831,24.2060498 L26.478788,16.7766456 C28.6980514,15.1068572 31.1461522,12.6483439 31.1461522,9.98463376 C31.1461522,4.74057475 24.2288083,0.489154937 15.697315,0.489154937 M11.7069345,9.3595388 C11.7069345,10.208397 10.8819143,10.8973253 9.8653715,10.8973253 C8.84882873,10.8973253 8.02380852,10.208397 8.02380852,9.3595388 C8.02380852,8.51068065 8.84882873,7.82175229 9.8653715,7.82175229 C10.8819143,7.82175229 11.7069345,8.51068065 11.7069345,9.3595388 M17.5385506,9.3595388 C17.5385506,10.208397 16.7135304,10.8973253 15.6969876,10.8973253 C14.6804449,10.8973253 13.8554246,10.208397 13.8554246,9.3595388 C13.8554246,8.51068065 14.6804449,7.82175229 15.6969876,7.82175229 C16.7135304,7.82175229 17.5385506,8.51068065 17.5385506,9.3595388 M23.3701667,9.3595388 C23.3701667,10.208397 22.5451465,10.8973253 21.5286037,10.8973253 C20.512061,10.8973253 19.6870408,10.208397 19.6870408,9.3595388 C19.6870408,8.51068065 20.512061,7.82175229 21.5286037,7.82175229 C22.5451465,7.82175229 23.3701667,8.51068065 23.3701667,9.3595388" id="Combined-Shape" fill="#000000"></path>
                                </g>
                            </g>
                        </g>
                        <g id="Secondary-button" transform="translate(70.000000, 212.000000)">
                            <mask id="mask-3" fill="white">
                                <use xlink:href="#path-1"></use>
                            </mask>
                            <g id="BG" stroke="#340E14" mask="url(#mask-2)" stroke-width="4">
                                <use mask="url(#mask-4)" xlink:href="#path-1"></use>
                            </g>
                            <path d="M63.1,22.32 C63.0733332,22.920003 63.06,23.4799974 63.06,24 C63.06,24.5200026 63.0733332,25.079997 63.1,25.68 C63.1400002,26.7866722 63.4766635,27.6833299 64.11,28.37 C64.7433365,29.0566701 65.6533274,29.4 66.84,29.4 C67.4800032,29.4 68.0199978,29.3200008 68.46,29.16 C68.9000022,28.9999992 69.2633319,28.7933346 69.55,28.54 C69.8366681,28.2866654 70.0566659,27.9966683 70.21,27.67 C70.3633341,27.3433317 70.4799996,27.013335 70.56,26.68 C70.5866668,26.5333326 70.6533328,26.4233337 70.76,26.35 C70.8666672,26.2766663 70.9733328,26.24 71.08,26.24 L72,26.24 C72.1200006,26.24 72.2233329,26.2833329 72.31,26.37 C72.3966671,26.4566671 72.44,26.5599994 72.44,26.68 C72.4266666,27.1200022 72.3133344,27.5999974 72.1,28.12 C71.8866656,28.6400026 71.5566689,29.1299977 71.11,29.59 C70.6633311,30.0500023 70.0900035,30.4333318 69.39,30.74 C68.6899965,31.0466682 67.840005,31.2 66.84,31.2 C65.973329,31.2 65.2000034,31.0633347 64.52,30.79 C63.8399966,30.5166653 63.2566691,30.1400024 62.77,29.66 C62.2833309,29.1799976 61.906668,28.6100033 61.64,27.95 C61.373332,27.2899967 61.2266668,26.5666706 61.2,25.78 C61.1599998,24.5933274 61.1599998,23.4066726 61.2,22.22 C61.2266668,21.4466628 61.373332,20.72667 61.64,20.06 C61.906668,19.39333 62.2833309,18.8200024 62.77,18.34 C63.2566691,17.8599976 63.8399966,17.4833347 64.52,17.21 C65.2000034,16.9366653 65.973329,16.8 66.84,16.8 C67.840005,16.8 68.6899965,16.9533318 69.39,17.26 C70.0900035,17.5666682 70.6633311,17.9499977 71.11,18.41 C71.5566689,18.8700023 71.8866656,19.3599974 72.1,19.88 C72.3133344,20.4000026 72.4266666,20.8799978 72.44,21.32 C72.44,21.4400006 72.3966671,21.5433329 72.31,21.63 C72.2233329,21.7166671 72.1200006,21.76 72,21.76 L71.08,21.76 C70.9733328,21.76 70.8666672,21.7233337 70.76,21.65 C70.6533328,21.5766663 70.5866668,21.4666674 70.56,21.32 C70.4799996,20.986665 70.3633341,20.6566683 70.21,20.33 C70.0566659,20.0033317 69.8366681,19.7133346 69.55,19.46 C69.2633319,19.2066654 68.9000022,19.0000008 68.46,18.84 C68.0199978,18.6799992 67.4800032,18.6 66.84,18.6 C65.6533274,18.6 64.7433365,18.9433299 64.11,19.63 C63.4766635,20.3166701 63.1400002,21.2133278 63.1,22.32 L63.1,22.32 Z M77.0446153,30.46 C77.0446153,30.6066674 76.9912825,30.7333328 76.8846153,30.84 C76.7779481,30.9466672 76.6512827,31 76.5046153,31 L75.7646153,31 C75.6179479,31 75.4912825,30.9466672 75.3846153,30.84 C75.2779481,30.7333328 75.2246153,30.6066674 75.2246153,30.46 L75.2246153,17.34 C75.2246153,17.1933326 75.2779481,17.0666672 75.3846153,16.96 C75.4912825,16.8533328 75.6179479,16.8 75.7646153,16.8 L76.5046153,16.8 C76.6512827,16.8 76.7779481,16.8533328 76.8846153,16.96 C76.9912825,17.0666672 77.0446153,17.1933326 77.0446153,17.34 L77.0446153,30.46 Z M84.6892307,20.4 C85.4092343,20.4 86.0492279,20.5099989 86.6092307,20.73 C87.1692335,20.9500011 87.6492287,21.2533314 88.0492307,21.64 C88.4492327,22.0266686 88.7658962,22.4966639 88.9992307,23.05 C89.2325652,23.6033361 89.3758971,24.2066634 89.4292307,24.86 C89.4425641,24.9800006 89.4492307,25.1233325 89.4492307,25.29 L89.4492307,25.81 L89.4492307,26.33 C89.4492307,26.4966675 89.4425641,26.6333328 89.4292307,26.74 C89.3625637,27.40667 89.2158985,28.0133306 88.9892307,28.56 C88.7625629,29.1066694 88.4492327,29.5733314 88.0492307,29.96 C87.6492287,30.3466686 87.1692335,30.6499989 86.6092307,30.87 C86.0492279,31.0900011 85.4092343,31.2 84.6892307,31.2 C83.9692271,31.2 83.3292335,31.0900011 82.7692307,30.87 C82.2092279,30.6499989 81.7292327,30.3466686 81.3292307,29.96 C80.9292287,29.5733314 80.6125652,29.1066694 80.3792307,28.56 C80.1458962,28.0133306 80.0025643,27.40667 79.9492307,26.74 C79.9358973,26.6333328 79.9258974,26.4966675 79.9192307,26.33 C79.912564,26.1633325 79.9092307,25.9900009 79.9092307,25.81 C79.9092307,25.6299991 79.912564,25.4566675 79.9192307,25.29 C79.9258974,25.1233325 79.9358973,24.9800006 79.9492307,24.86 C80.0025643,24.2066634 80.1458962,23.6033361 80.3792307,23.05 C80.6125652,22.4966639 80.9292287,22.0266686 81.3292307,21.64 C81.7292327,21.2533314 82.2092279,20.9500011 82.7692307,20.73 C83.3292335,20.5099989 83.9692271,20.4 84.6892307,20.4 L84.6892307,20.4 Z M87.6092307,26.64 C87.6358975,26.4133322 87.6492307,26.1366683 87.6492307,25.81 C87.6492307,25.4833317 87.6358975,25.2000012 87.6092307,24.96 C87.5692305,24.559998 87.4825647,24.1866684 87.3492307,23.84 C87.2158967,23.4933316 87.0292319,23.1933346 86.7892307,22.94 C86.5492295,22.6866654 86.2558991,22.4866674 85.9092307,22.34 C85.5625623,22.1933326 85.1558997,22.12 84.6892307,22.12 C84.2225617,22.12 83.8158991,22.1933326 83.4692307,22.34 C83.1225623,22.4866674 82.8292319,22.6866654 82.5892307,22.94 C82.3492295,23.1933346 82.1625647,23.4933316 82.0292307,23.84 C81.8958967,24.1866684 81.8092309,24.559998 81.7692307,24.96 C81.7425639,25.2000012 81.7292307,25.4833317 81.7292307,25.81 C81.7292307,26.1366683 81.7425639,26.4133322 81.7692307,26.64 C81.8092309,27.040002 81.8958967,27.4133316 82.0292307,27.76 C82.1625647,28.1066684 82.3492295,28.4066654 82.5892307,28.66 C82.8292319,28.9133346 83.1225623,29.1133326 83.4692307,29.26 C83.8158991,29.4066674 84.2225617,29.48 84.6892307,29.48 C85.1558997,29.48 85.5625623,29.4066674 85.9092307,29.26 C86.2558991,29.1133326 86.5492295,28.9133346 86.7892307,28.66 C87.0292319,28.4066654 87.2158967,28.1066684 87.3492307,27.76 C87.4825647,27.4133316 87.5692305,27.040002 87.6092307,26.64 L87.6092307,26.64 Z M98.273846,28.12 C98.273846,27.8666654 98.2038467,27.6566675 98.063846,27.49 C97.9238453,27.3233325 97.7138474,27.1800006 97.433846,27.06 C97.1538446,26.9399994 96.7971815,26.8266672 96.363846,26.72 C95.9305105,26.6133328 95.4271822,26.5000006 94.853846,26.38 C93.7738406,26.1533322 93.0171815,25.7766693 92.583846,25.25 C92.1505105,24.7233307 91.933846,24.1066702 91.933846,23.4 C91.933846,22.999998 92.0138452,22.6200018 92.173846,22.26 C92.3338468,21.8999982 92.5738444,21.5800014 92.893846,21.3 C93.2138476,21.0199986 93.6171769,20.8000008 94.103846,20.64 C94.5905151,20.4799992 95.1605094,20.4 95.813846,20.4 C96.4671826,20.4 97.0371769,20.4733326 97.523846,20.62 C98.0105151,20.7666674 98.420511,20.9533322 98.753846,21.18 C99.087181,21.4066678 99.3405118,21.6499987 99.513846,21.91 C99.6871802,22.1700013 99.7805126,22.4199988 99.793846,22.66 C99.8071794,22.8066674 99.7571799,22.9333328 99.643846,23.04 C99.5305121,23.1466672 99.4005134,23.2 99.253846,23.2 L98.593846,23.2 C98.5138456,23.2 98.4171799,23.1833335 98.303846,23.15 C98.1905121,23.1166665 98.0871798,23.0400006 97.993846,22.92 C97.8205118,22.6933322 97.5638477,22.5033341 97.223846,22.35 C96.8838443,22.1966659 96.413849,22.12 95.813846,22.12 C95.2005096,22.12 94.7038479,22.2333322 94.323846,22.46 C93.9438441,22.6866678 93.753846,22.999998 93.753846,23.4 C93.753846,23.6533346 93.8071788,23.8566659 93.913846,24.01 C94.0205132,24.1633341 94.1938448,24.2966661 94.433846,24.41 C94.6738472,24.5233339 94.9905107,24.6266662 95.383846,24.72 C95.7771813,24.8133338 96.2671764,24.926666 96.853846,25.06 C97.4671824,25.193334 97.9805106,25.3633323 98.393846,25.57 C98.8071814,25.7766677 99.1405114,26.0099987 99.393846,26.27 C99.6471806,26.5300013 99.8271788,26.8166651 99.933846,27.13 C100.040513,27.4433349 100.093846,27.7733316 100.093846,28.12 C100.093846,28.520002 99.9971803,28.9066648 99.803846,29.28 C99.6105117,29.6533352 99.3338478,29.9799986 98.973846,30.26 C98.6138442,30.5400014 98.1771819,30.7666658 97.663846,30.94 C97.1505101,31.1133342 96.5671826,31.2 95.913846,31.2 C95.2605094,31.2 94.6805152,31.1200008 94.173846,30.96 C93.6671768,30.7999992 93.2338478,30.6033345 92.873846,30.37 C92.5138442,30.1366655 92.2371803,29.8833347 92.043846,29.61 C91.8505117,29.3366653 91.7471794,29.0800012 91.733846,28.84 C91.7205126,28.6933326 91.7671788,28.5666672 91.873846,28.46 C91.9805132,28.3533328 92.1138452,28.3 92.273846,28.3 L92.993846,28.3 C93.0738464,28.3 93.1671788,28.3099999 93.273846,28.33 C93.3805132,28.3500001 93.4805122,28.426666 93.573846,28.56 C93.7871804,28.8533348 94.0805108,29.0799992 94.453846,29.24 C94.8271812,29.4000008 95.313843,29.48 95.913846,29.48 C96.2071808,29.48 96.4971779,29.446667 96.783846,29.38 C97.0705141,29.313333 97.3238449,29.2200006 97.543846,29.1 C97.7638471,28.9799994 97.940512,28.8366675 98.073846,28.67 C98.20718,28.5033325 98.273846,28.320001 98.273846,28.12 L98.273846,28.12 Z M102.378461,24.8 C102.431795,24.1866636 102.57846,23.613336 102.818461,23.08 C103.058463,22.546664 103.371793,22.080002 103.758461,21.68 C104.14513,21.279998 104.608459,20.9666678 105.148461,20.74 C105.688464,20.5133322 106.291791,20.4 106.958461,20.4 C107.678465,20.4 108.321792,20.5166655 108.888461,20.75 C109.455131,20.9833345 109.938459,21.3199978 110.338461,21.76 C110.738463,22.2000022 111.045127,22.7333302 111.258461,23.36 C111.471796,23.9866698 111.578461,24.6866628 111.578461,25.46 L111.578461,26 C111.578461,26.1466674 111.525129,26.2733328 111.418461,26.38 C111.311794,26.4866672 111.185129,26.54 111.038461,26.54 L104.158461,26.54 L104.158461,26.66 C104.185128,27.5666712 104.461792,28.2633309 104.988461,28.75 C105.515131,29.2366691 106.171791,29.48 106.958461,29.48 C107.691798,29.48 108.241793,29.3766677 108.608461,29.17 C108.97513,28.9633323 109.271794,28.7333346 109.498461,28.48 C109.605129,28.3733328 109.698461,28.3000002 109.778461,28.26 C109.858462,28.2199998 109.978461,28.2 110.138461,28.2 L110.738461,28.2 C110.885129,28.2 111.018461,28.2533328 111.138461,28.36 C111.258462,28.4666672 111.305128,28.5933326 111.278461,28.74 C111.238461,28.9800012 111.125129,29.2433319 110.938461,29.53 C110.751794,29.8166681 110.481796,30.0833321 110.128461,30.33 C109.775126,30.5766679 109.335131,30.7833325 108.808461,30.95 C108.281792,31.1166675 107.665132,31.2 106.958461,31.2 C106.291791,31.2 105.691797,31.0833345 105.158461,30.85 C104.625125,30.6166655 104.161797,30.2966687 103.768461,29.89 C103.375126,29.4833313 103.058463,29.0033361 102.818461,28.45 C102.57846,27.8966639 102.431795,27.2933366 102.378461,26.64 C102.311794,26.0266636 102.311794,25.4133364 102.378461,24.8 L102.378461,24.8 Z M104.158461,24.86 L109.778461,24.86 L109.778461,24.8 C109.778461,23.9866626 109.521797,23.3366691 109.008461,22.85 C108.495125,22.3633309 107.811799,22.12 106.958461,22.12 C106.571793,22.12 106.211796,22.1833327 105.878461,22.31 C105.545126,22.4366673 105.251796,22.6166655 104.998461,22.85 C104.745127,23.0833345 104.545129,23.366665 104.398461,23.7 C104.251794,24.033335 104.171795,24.399998 104.158461,24.8 L104.158461,24.86 Z" id="Close" fill="#340E14" mask="url(#mask-3)"></path>
                            <path d="M35.678743,16.2647727 C34.8091257,16.2647727 33.9914905,16.6037305 33.3774518,17.2179566 C32.1147198,18.4798727 32.1168857,20.5341296 33.3839496,21.7949663 C33.3839496,21.7949663 35.5552855,23.96041 35.7577991,24.1579555 C36.0296222,24.4213494 36.0122949,24.6912203 35.6386735,25.0269396 C35.3917585,25.2471542 33.3839496,27.2701061 33.3839496,27.2701061 C32.1168857,28.5309428 32.1147198,30.5851997 33.3796177,31.8492748 C33.9936564,32.4624214 34.8102086,32.8002997 35.679826,32.8002997 C36.5451115,32.8002997 37.3605808,32.4635008 37.9746194,31.8535927 C37.9746194,31.8535927 39.8676345,29.9504635 40.1990204,29.6395722 C40.5304063,29.3297605 40.9007788,29.3211246 41.2397455,29.6633209 C41.5776292,30.0055171 43.3807585,31.8330825 43.3807585,31.8330825 C43.9958801,32.4559445 44.8189301,32.8002997 45.6972112,32.8002997 C46.5559989,32.8002997 47.3660534,32.4688983 47.9768431,31.8687055 C48.5930477,31.2641948 48.9385121,30.4535027 48.9460928,29.587757 C48.9525906,28.7230908 48.6212047,27.9070014 48.0125808,27.2906163 C48.0125808,27.2906163 45.9354625,25.2611875 45.6917963,24.9395014 C45.4492132,24.6178154 45.5390989,24.2810166 45.7513592,24.0651199 C45.9647024,23.8503027 48.0125808,21.7744561 48.0125808,21.7744561 C48.6212047,21.158071 48.9525906,20.3419816 48.9460928,19.4773154 C48.9385121,18.6115697 48.5930477,17.8008776 47.9746772,17.1942079 C47.3617215,16.5950947 46.55275,16.2658522 45.6961282,16.2658522 C44.8189301,16.2658522 43.9958801,16.6091279 43.3807585,17.2330694 C43.3807585,17.2330694 41.3664519,19.2668161 41.1520257,19.4913487 C40.9365165,19.7148017 40.5087471,19.7331529 40.2726617,19.4978256 C40.0365763,19.2635777 37.9746194,17.2114797 37.9746194,17.2114797 C37.3605808,16.6004921 36.5451115,16.2647727 35.678743,16.2647727 M35.678743,18.4237396 C35.9559809,18.4237396 36.2321359,18.5295289 36.4443961,18.7400282 L40.7264222,23.0007492 L44.9250603,18.7465051 C45.1373205,18.5316879 45.4167244,18.424819 45.6961282,18.424819 C45.9701172,18.424819 46.2451892,18.52737 46.4563665,18.7335513 C46.883053,19.1523909 46.8884678,19.8357039 46.4682791,20.2610203 L42.2523136,24.5325362 L46.4682791,28.8051316 C46.8884678,29.2293685 46.883053,29.9126815 46.4563665,30.3315211 C46.2451892,30.5377024 45.9712002,30.6413328 45.6972112,30.6413328 C45.4167244,30.6413328 45.1373205,30.5333845 44.9250603,30.3185673 L40.7264222,26.0643232 L36.4443961,30.3250442 C36.2332188,30.5355435 35.9559809,30.6413328 35.679826,30.6413328 C35.4015051,30.6413328 35.1242672,30.5355435 34.9130899,30.3239647 C34.4907353,29.9018867 34.4907353,29.2185737 34.9141728,28.7975752 L39.2005307,24.5325362 L34.9141728,20.2674972 C34.4907353,19.8464987 34.4907353,19.1631857 34.9130899,18.7411077 C35.1242672,18.5295289 35.4015051,18.4237396 35.678743,18.4237396" id="Fill-13" fill="#340E14" mask="url(#mask-3)"></path>
                        </g>
                        <g id="Secondary-button-(disabled)" transform="translate(275.000000, 212.000000)">
                            <mask id="mask-7" fill="white">
                                <use xlink:href="#path-5"></use>
                            </mask>
                            <g id="BG" stroke="#A69FA0" mask="url(#mask-6)" stroke-width="4">
                                <use mask="url(#mask-8)" xlink:href="#path-5"></use>
                            </g>
                            <path d="M54.58,22.42 C54.5933334,23.020003 54.6,23.5466644 54.6,24 C54.6,24.4533356 54.5933334,24.979997 54.58,25.58 C54.5666666,26.4200042 54.4200014,27.1766633 54.14,27.85 C53.8599986,28.5233367 53.4733358,29.093331 52.98,29.56 C52.4866642,30.026669 51.9000034,30.3833321 51.22,30.63 C50.5399966,30.8766679 49.7866708,31 48.96,31 L44.26,31 C44.1133326,31 43.9866672,30.9466672 43.88,30.84 C43.7733328,30.7333328 43.72,30.6066674 43.72,30.46 L43.72,17.54 C43.72,17.3933326 43.7733328,17.2666672 43.88,17.16 C43.9866672,17.0533328 44.1133326,17 44.26,17 L48.84,17 C49.6666708,17 50.4299965,17.1233321 51.13,17.37 C51.8300035,17.6166679 52.4333308,17.973331 52.94,18.44 C53.4466692,18.906669 53.8433319,19.4766633 54.13,20.15 C54.4166681,20.8233367 54.5666666,21.5799958 54.58,22.42 L54.58,22.42 Z M52.68,22.52 C52.6666666,22.0399976 52.5900007,21.5766689 52.45,21.13 C52.3099993,20.6833311 52.0866682,20.2866684 51.78,19.94 C51.4733318,19.5933316 51.0733358,19.3166677 50.58,19.11 C50.0866642,18.9033323 49.4800036,18.8 48.76,18.8 L45.62,18.8 L45.62,29.2 L48.86,29.2 C49.5800036,29.2 50.1833309,29.0966677 50.67,28.89 C51.1566691,28.6833323 51.5466652,28.4066684 51.84,28.06 C52.1333348,27.7133316 52.3433327,27.3166689 52.47,26.87 C52.5966673,26.4233311 52.6666666,25.9600024 52.68,25.48 C52.68,25.1866652 52.6833333,24.9233345 52.69,24.69 C52.6966667,24.4566655 52.7,24.2300011 52.7,24.01 C52.7,23.7899989 52.6966667,23.5633345 52.69,23.33 C52.6833333,23.0966655 52.68,22.8266682 52.68,22.52 L52.68,22.52 Z M59.4646153,30.46 C59.4646153,30.6066674 59.4112825,30.7333328 59.3046153,30.84 C59.1979481,30.9466672 59.0712827,31 58.9246153,31 L58.1846153,31 C58.0379479,31 57.9112825,30.9466672 57.8046153,30.84 C57.6979481,30.7333328 57.6446153,30.6066674 57.6446153,30.46 L57.6446153,21.14 C57.6446153,20.9933326 57.6979481,20.8666672 57.8046153,20.76 C57.9112825,20.6533328 58.0379479,20.6 58.1846153,20.6 L58.9246153,20.6 C59.0712827,20.6 59.1979481,20.6533328 59.3046153,20.76 C59.4112825,20.8666672 59.4646153,20.9933326 59.4646153,21.14 L59.4646153,30.46 Z M59.6646153,18.48 C59.6646153,18.6266674 59.6112825,18.7533328 59.5046153,18.86 C59.3979481,18.9666672 59.2712827,19.02 59.1246153,19.02 L57.9846153,19.02 C57.8379479,19.02 57.7112825,18.9666672 57.6046153,18.86 C57.4979481,18.7533328 57.4446153,18.6266674 57.4446153,18.48 L57.4446153,17.34 C57.4446153,17.1933326 57.4979481,17.0666672 57.6046153,16.96 C57.7112825,16.8533328 57.8379479,16.8 57.9846153,16.8 L59.1246153,16.8 C59.2712827,16.8 59.3979481,16.8533328 59.5046153,16.96 C59.6112825,17.0666672 59.6646153,17.1933326 59.6646153,17.34 L59.6646153,18.48 Z M68.7692307,28.12 C68.7692307,27.8666654 68.6992314,27.6566675 68.5592307,27.49 C68.41923,27.3233325 68.2092321,27.1800006 67.9292307,27.06 C67.6492293,26.9399994 67.2925662,26.8266672 66.8592307,26.72 C66.4258952,26.6133328 65.9225669,26.5000006 65.3492307,26.38 C64.2692253,26.1533322 63.5125662,25.7766693 63.0792307,25.25 C62.6458952,24.7233307 62.4292307,24.1066702 62.4292307,23.4 C62.4292307,22.999998 62.5092299,22.6200018 62.6692307,22.26 C62.8292315,21.8999982 63.0692291,21.5800014 63.3892307,21.3 C63.7092323,21.0199986 64.1125616,20.8000008 64.5992307,20.64 C65.0858998,20.4799992 65.6558941,20.4 66.3092307,20.4 C66.9625673,20.4 67.5325616,20.4733326 68.0192307,20.62 C68.5058998,20.7666674 68.9158957,20.9533322 69.2492307,21.18 C69.5825657,21.4066678 69.8358965,21.6499987 70.0092307,21.91 C70.1825649,22.1700013 70.2758973,22.4199988 70.2892307,22.66 C70.3025641,22.8066674 70.2525646,22.9333328 70.1392307,23.04 C70.0258968,23.1466672 69.8958981,23.2 69.7492307,23.2 L69.0892307,23.2 C69.0092303,23.2 68.9125646,23.1833335 68.7992307,23.15 C68.6858968,23.1166665 68.5825645,23.0400006 68.4892307,22.92 C68.3158965,22.6933322 68.0592324,22.5033341 67.7192307,22.35 C67.379229,22.1966659 66.9092337,22.12 66.3092307,22.12 C65.6958943,22.12 65.1992326,22.2333322 64.8192307,22.46 C64.4392288,22.6866678 64.2492307,22.999998 64.2492307,23.4 C64.2492307,23.6533346 64.3025635,23.8566659 64.4092307,24.01 C64.5158979,24.1633341 64.6892295,24.2966661 64.9292307,24.41 C65.1692319,24.5233339 65.4858954,24.6266662 65.8792307,24.72 C66.272566,24.8133338 66.7625611,24.926666 67.3492307,25.06 C67.9625671,25.193334 68.4758953,25.3633323 68.8892307,25.57 C69.3025661,25.7766677 69.6358961,26.0099987 69.8892307,26.27 C70.1425653,26.5300013 70.3225635,26.8166651 70.4292307,27.13 C70.5358979,27.4433349 70.5892307,27.7733316 70.5892307,28.12 C70.5892307,28.520002 70.492565,28.9066648 70.2992307,29.28 C70.1058964,29.6533352 69.8292325,29.9799986 69.4692307,30.26 C69.1092289,30.5400014 68.6725666,30.7666658 68.1592307,30.94 C67.6458948,31.1133342 67.0625673,31.2 66.4092307,31.2 C65.7558941,31.2 65.1758999,31.1200008 64.6692307,30.96 C64.1625615,30.7999992 63.7292325,30.6033345 63.3692307,30.37 C63.0092289,30.1366655 62.732565,29.8833347 62.5392307,29.61 C62.3458964,29.3366653 62.2425641,29.0800012 62.2292307,28.84 C62.2158973,28.6933326 62.2625635,28.5666672 62.3692307,28.46 C62.4758979,28.3533328 62.6092299,28.3 62.7692307,28.3 L63.4892307,28.3 C63.5692311,28.3 63.6625635,28.3099999 63.7692307,28.33 C63.8758979,28.3500001 63.9758969,28.426666 64.0692307,28.56 C64.2825651,28.8533348 64.5758955,29.0799992 64.9492307,29.24 C65.3225659,29.4000008 65.8092277,29.48 66.4092307,29.48 C66.7025655,29.48 66.9925626,29.446667 67.2792307,29.38 C67.5658988,29.313333 67.8192296,29.2200006 68.0392307,29.1 C68.2592318,28.9799994 68.4358967,28.8366675 68.5692307,28.67 C68.7025647,28.5033325 68.7692307,28.320001 68.7692307,28.12 L68.7692307,28.12 Z M72.613846,28.38 C72.613846,27.846664 72.7205116,27.380002 72.933846,26.98 C73.1471804,26.579998 73.4405108,26.2400014 73.813846,25.96 C74.1871812,25.6799986 74.6238435,25.4533342 75.123846,25.28 C75.6238485,25.1066658 76.1538432,24.9733338 76.713846,24.88 L79.533846,24.42 L79.533846,24.16 C79.533846,23.4799966 79.3105149,22.9700017 78.863846,22.63 C78.4171771,22.2899983 77.860516,22.12 77.193846,22.12 C76.6071764,22.12 76.1638475,22.2266656 75.863846,22.44 C75.5638445,22.6533344 75.3071804,22.9066652 75.093846,23.2 C75.0138456,23.3066672 74.9271798,23.3799998 74.833846,23.42 C74.7405122,23.4600002 74.6138468,23.48 74.453846,23.48 L73.853846,23.48 C73.7071786,23.48 73.5771799,23.4266672 73.463846,23.32 C73.3505121,23.2133328 73.3005126,23.0866674 73.313846,22.94 C73.3405128,22.6466652 73.4571783,22.3466682 73.663846,22.04 C73.8705137,21.7333318 74.1505109,21.4600012 74.503846,21.22 C74.8571811,20.9799988 75.2638437,20.7833341 75.723846,20.63 C76.1838483,20.4766659 76.6738434,20.4 77.193846,20.4 C77.793849,20.4 78.3505101,20.4866658 78.863846,20.66 C79.3771819,20.8333342 79.8171775,21.086665 80.183846,21.42 C80.5505145,21.753335 80.8371783,22.1666642 81.043846,22.66 C81.2505137,23.1533358 81.353846,23.7199968 81.353846,24.36 L81.353846,30.46 C81.353846,30.6066674 81.3005132,30.7333328 81.193846,30.84 C81.0871788,30.9466672 80.9605134,31 80.813846,31 L80.073846,31 C79.9271786,31 79.8005132,30.9466672 79.693846,30.84 C79.5871788,30.7333328 79.533846,30.6066674 79.533846,30.46 L79.533846,29.64 C79.4138454,29.8933346 79.2271806,30.1166657 78.973846,30.31 C78.7205114,30.5033343 78.4305143,30.666666 78.103846,30.8 C77.7771777,30.933334 77.4371811,31.033333 77.083846,31.1 C76.7305109,31.166667 76.4005142,31.2 76.093846,31.2 C75.5738434,31.2 75.0971815,31.1266674 74.663846,30.98 C74.2305105,30.8333326 73.8638475,30.6366679 73.563846,30.39 C73.2638445,30.1433321 73.0305135,29.8466684 72.863846,29.5 C72.6971785,29.1533316 72.613846,28.780002 72.613846,28.38 L72.613846,28.38 Z M76.293846,29.48 C76.7738484,29.48 77.213844,29.4066674 77.613846,29.26 C78.013848,29.1133326 78.3571779,28.9100013 78.643846,28.65 C78.9305141,28.3899987 79.1505119,28.0800018 79.303846,27.72 C79.4571801,27.3599982 79.533846,26.9600022 79.533846,26.52 L79.533846,26.02 L77.173846,26.4 C76.3338418,26.533334 75.6671818,26.7466652 75.173846,27.04 C74.6805102,27.3333348 74.433846,27.713331 74.433846,28.18 C74.433846,28.3266674 74.467179,28.4733326 74.533846,28.62 C74.600513,28.7666674 74.7071786,28.906666 74.853846,29.04 C75.0005134,29.173334 75.1905115,29.2799996 75.423846,29.36 C75.6571805,29.4400004 75.9471776,29.48 76.293846,29.48 L76.293846,29.48 Z M89.5784613,20.4 C90.2051311,20.4 90.7884586,20.5099989 91.3284613,20.73 C91.868464,20.9500011 92.3384593,21.2633313 92.7384613,21.67 C93.1384633,22.0766687 93.4584601,22.5733304 93.6984613,23.16 C93.9384625,23.7466696 94.0784611,24.406663 94.1184613,25.14 C94.1317947,25.340001 94.1384613,25.5566655 94.1384613,25.79 C94.1384613,26.0233345 94.1317947,26.239999 94.1184613,26.44 C94.0784611,27.173337 93.9384625,27.8333304 93.6984613,28.42 C93.4584601,29.0066696 93.1384633,29.5066646 92.7384613,29.92 C92.3384593,30.3333354 91.868464,30.6499989 91.3284613,30.87 C90.7884586,31.0900011 90.2051311,31.2 89.5784613,31.2 C88.7651239,31.2 88.1117971,31.0633347 87.6184613,30.79 C87.1251255,30.5166653 86.7451293,30.2000018 86.4784613,29.84 L86.4784613,30.46 C86.4784613,30.6066674 86.4251285,30.7333328 86.3184613,30.84 C86.2117941,30.9466672 86.0851287,31 85.9384613,31 L85.1984613,31 C85.0517939,31 84.9251285,30.9466672 84.8184613,30.84 C84.7117941,30.7333328 84.6584613,30.6066674 84.6584613,30.46 L84.6584613,17.34 C84.6584613,17.1933326 84.7117941,17.0666672 84.8184613,16.96 C84.9251285,16.8533328 85.0517939,16.8 85.1984613,16.8 L85.9384613,16.8 C86.0851287,16.8 86.2117941,16.8533328 86.3184613,16.96 C86.4251285,17.0666672 86.4784613,17.1933326 86.4784613,17.34 L86.4784613,21.76 C86.7317959,21.426665 87.1051255,21.1166681 87.5984613,20.83 C88.0917971,20.5433319 88.7517905,20.4 89.5784613,20.4 L89.5784613,20.4 Z M86.4784613,26.66 C86.5451283,27.526671 86.8384587,28.2133308 87.3584613,28.72 C87.8784639,29.2266692 88.5517905,29.48 89.3784613,29.48 C90.2584657,29.48 90.9484588,29.2000028 91.4484613,28.64 C91.9484638,28.0799972 92.2317943,27.3200048 92.2984613,26.36 C92.3117947,25.9866648 92.3117947,25.6133352 92.2984613,25.24 C92.2317943,24.2799952 91.9484638,23.5200028 91.4484613,22.96 C90.9484588,22.3999972 90.2584657,22.12 89.3784613,22.12 C88.5384571,22.12 87.8651305,22.3766641 87.3584613,22.89 C86.8517921,23.4033359 86.5584617,24.1333286 86.4784613,25.08 C86.4517945,25.280001 86.4384613,25.5433317 86.4384613,25.87 C86.4384613,26.1966683 86.4517945,26.459999 86.4784613,26.66 L86.4784613,26.66 Z M98.8230767,30.46 C98.8230767,30.6066674 98.7697439,30.7333328 98.6630767,30.84 C98.5564095,30.9466672 98.4297441,31 98.2830767,31 L97.5430767,31 C97.3964093,31 97.2697439,30.9466672 97.1630767,30.84 C97.0564095,30.7333328 97.0030767,30.6066674 97.0030767,30.46 L97.0030767,17.34 C97.0030767,17.1933326 97.0564095,17.0666672 97.1630767,16.96 C97.2697439,16.8533328 97.3964093,16.8 97.5430767,16.8 L98.2830767,16.8 C98.4297441,16.8 98.5564095,16.8533328 98.6630767,16.96 C98.7697439,17.0666672 98.8230767,17.1933326 98.8230767,17.34 L98.8230767,30.46 Z M101.727692,24.8 C101.781026,24.1866636 101.927691,23.613336 102.167692,23.08 C102.407693,22.546664 102.721023,22.080002 103.107692,21.68 C103.494361,21.279998 103.957689,20.9666678 104.497692,20.74 C105.037695,20.5133322 105.641022,20.4 106.307692,20.4 C107.027696,20.4 107.671022,20.5166655 108.237692,20.75 C108.804361,20.9833345 109.28769,21.3199978 109.687692,21.76 C110.087694,22.2000022 110.394358,22.7333302 110.607692,23.36 C110.821026,23.9866698 110.927692,24.6866628 110.927692,25.46 L110.927692,26 C110.927692,26.1466674 110.874359,26.2733328 110.767692,26.38 C110.661025,26.4866672 110.534359,26.54 110.387692,26.54 L103.507692,26.54 L103.507692,26.66 C103.534359,27.5666712 103.811023,28.2633309 104.337692,28.75 C104.864361,29.2366691 105.521021,29.48 106.307692,29.48 C107.041029,29.48 107.591023,29.3766677 107.957692,29.17 C108.32436,28.9633323 108.621024,28.7333346 108.847692,28.48 C108.954359,28.3733328 109.047692,28.3000002 109.127692,28.26 C109.207692,28.2199998 109.327691,28.2 109.487692,28.2 L110.087692,28.2 C110.234359,28.2 110.367691,28.2533328 110.487692,28.36 C110.607693,28.4666672 110.654359,28.5933326 110.627692,28.74 C110.587692,28.9800012 110.47436,29.2433319 110.287692,29.53 C110.101024,29.8166681 109.831027,30.0833321 109.477692,30.33 C109.124357,30.5766679 108.684361,30.7833325 108.157692,30.95 C107.631023,31.1166675 107.014362,31.2 106.307692,31.2 C105.641022,31.2 105.041028,31.0833345 104.507692,30.85 C103.974356,30.6166655 103.511027,30.2966687 103.117692,29.89 C102.724357,29.4833313 102.407693,29.0033361 102.167692,28.45 C101.927691,27.8966639 101.781026,27.2933366 101.727692,26.64 C101.661025,26.0266636 101.661025,25.4133364 101.727692,24.8 L101.727692,24.8 Z M103.507692,24.86 L109.127692,24.86 L109.127692,24.8 C109.127692,23.9866626 108.871028,23.3366691 108.357692,22.85 C107.844356,22.3633309 107.16103,22.12 106.307692,22.12 C105.921023,22.12 105.561027,22.1833327 105.227692,22.31 C104.894357,22.4366673 104.601027,22.6166655 104.347692,22.85 C104.094357,23.0833345 103.894359,23.366665 103.747692,23.7 C103.601025,24.033335 103.521025,24.399998 103.507692,24.8 L103.507692,24.86 Z M117.772307,20.4 C118.598978,20.4 119.258972,20.5433319 119.752307,20.83 C120.245643,21.1166681 120.618973,21.426665 120.872307,21.76 L120.872307,17.34 C120.872307,17.1933326 120.92564,17.0666672 121.032307,16.96 C121.138975,16.8533328 121.26564,16.8 121.412307,16.8 L122.152307,16.8 C122.298975,16.8 122.42564,16.8533328 122.532307,16.96 C122.638975,17.0666672 122.692307,17.1933326 122.692307,17.34 L122.692307,30.46 C122.692307,30.6066674 122.638975,30.7333328 122.532307,30.84 C122.42564,30.9466672 122.298975,31 122.152307,31 L121.412307,31 C121.26564,31 121.138975,30.9466672 121.032307,30.84 C120.92564,30.7333328 120.872307,30.6066674 120.872307,30.46 L120.872307,29.84 C120.605639,30.2000018 120.225643,30.5166653 119.732307,30.79 C119.238972,31.0633347 118.585645,31.2 117.772307,31.2 C117.145638,31.2 116.56231,31.0900011 116.022307,30.87 C115.482305,30.6499989 115.012309,30.3333354 114.612307,29.92 C114.212305,29.5066646 113.892309,29.0066696 113.652307,28.42 C113.412306,27.8333304 113.272308,27.173337 113.232307,26.44 C113.218974,26.239999 113.212307,26.0233345 113.212307,25.79 C113.212307,25.5566655 113.218974,25.340001 113.232307,25.14 C113.272308,24.406663 113.412306,23.7466696 113.652307,23.16 C113.892309,22.5733304 114.212305,22.0766687 114.612307,21.67 C115.012309,21.2633313 115.482305,20.9500011 116.022307,20.73 C116.56231,20.5099989 117.145638,20.4 117.772307,20.4 L117.772307,20.4 Z M120.872307,26.66 C120.885641,26.459999 120.892307,26.1966683 120.892307,25.87 C120.892307,25.5433317 120.885641,25.280001 120.872307,25.08 C120.832307,24.1333286 120.548977,23.4033359 120.022307,22.89 C119.495638,22.3766641 118.812312,22.12 117.972307,22.12 C117.092303,22.12 116.398977,22.3999972 115.892307,22.96 C115.385638,23.5200028 115.105641,24.2799952 115.052307,25.24 C115.038974,25.6133352 115.038974,25.9866648 115.052307,26.36 C115.105641,27.3200048 115.385638,28.0799972 115.892307,28.64 C116.398977,29.2000028 117.092303,29.48 117.972307,29.48 C118.798978,29.48 119.478971,29.2266692 120.012307,28.72 C120.545643,28.2133308 120.832307,27.526671 120.872307,26.66 L120.872307,26.66 Z" id="Disabled" fill="#A69FA0" mask="url(#mask-7)"></path>
                        </g>
                    </g>
                </g>
            </g>
        </g>
    </g>
</svg>
