<svg width="219px" height="283px" viewBox="0 0 219 283" version="1.1" xmlns="http://www.w3.org/2000/svg" xmlns:xlink="http://www.w3.org/1999/xlink">
    <defs>
        <polygon id="path-1" points="122.2467 282.908081 0.298591123 282.908081 0.298591123 17.4917193 122.2467 17.4917193 122.2467 282.908081"></polygon>
    </defs>
    <g stroke="none" stroke-width="1" fill="none" fill-rule="evenodd">
        <g id="08_li5_Casestudy" transform="translate(-690.000000, -2374.000000)">
            <g id="Liquid-concept" transform="translate(-45.000000, 2006.000000)">
                <g id="logo-animated-GIF" transform="translate(735.000000, 368.000000)">
                    <path d="M84.6357269,40.0704031 C84.6357269,50.2372753 76.3999989,58.4810138 66.2384834,58.4810138 C56.078993,58.4810138 47.8432649,50.2372753 47.8432649,40.0704031 C47.8432649,29.9035309 56.078993,21.6597924 66.2384834,21.6597924 C76.3999989,21.6597924 84.6357269,29.9035309 84.6357269,40.0704031" id="Fill-1" fill="#FBFDFA"></path>
                    <path d="M132.187083,66.7737933 C132.523235,66.7737933 132.837112,66.7839257 133.16719,66.7879787 L133.16719,51.3299557 C148.603864,50.2234952 170.425405,45.7469912 187.585365,30.8036953 C194.739736,24.5742823 195.491016,13.7204318 189.266126,6.56086249 C183.043261,-0.596680392 172.197291,-1.35053259 165.040895,4.87888044 C147.500232,20.1545198 118.297519,17.0479192 118.072742,17.0215749 C113.194486,16.427815 108.293954,17.9517313 104.612481,21.2143711 C100.933032,24.4749845 98.8270183,29.15819 98.8270183,34.0784941 L98.8270183,76.9082417 C105.616887,70.3464853 116.96911,66.7737933 132.187083,66.7737933" id="Fill-3" fill="#FFFFFF"></path>
                    <path d="M130.82992,112.863546 C111.290569,113.232367 97.6379307,108.865293 97.6379307,94.7994645 C97.6379307,69.3549265 135.728426,72.0157005 147.769154,74.1333767 C176.305637,79.150952 207.565764,100.40472 218.342883,137.702166 C218.895712,139.615167 216.477846,140.974938 215.167663,139.481419 C205.868803,128.882906 183.644285,112.863546 130.82992,112.863546" id="Fill-6" fill="#F8EC39"></path>
                    <mask id="mask-2" fill="white">
                        <use xlink:href="#path-1"></use>
                    </mask>
                    <g id="Clip-9"></g>
                    <path d="M106.627166,249.187786 C84.3034223,247.526069 65.784678,238.755444 53.0736711,223.822281 C40.7372916,209.330891 34.2187746,189.862455 34.2187746,167.522491 C34.2187746,160.016393 34.1681493,155.886418 34.121574,151.892217 C34.0871488,149.051086 34.0547486,146.355862 34.0425985,142.63321 L34.0587986,142.63321 C34.0587986,139.715073 34.0567736,136.59226 34.0547486,133.467421 C34.0567736,132.987144 34.0587986,132.502815 34.0628486,131.994167 L34.0547486,131.994167 C34.0486735,120.299326 34.0405735,36.094846 34.0405735,36.094846 L33.9534979,36.094846 C34.0101983,35.5294569 34.0405735,34.9539353 34.0405735,34.3743608 C34.0405735,25.0505061 26.4872748,17.4917193 17.1681648,17.4917193 C7.85107978,17.4917193 0.297781117,25.0505061 0.297781117,34.3743608 C0.297781117,34.9620413 0.330181326,35.5436423 0.388906704,36.1171374 L0.297781117,36.1171374 C0.297781117,36.1171374 0.307906183,121.3227 0.313981222,133.546454 C0.271455948,143.133752 0.3261313,147.640653 0.380806652,152.297514 C0.429406965,156.192417 0.475982265,160.219042 0.475982265,167.522491 C0.475982265,231.899848 42.1305006,278.249599 104.126275,282.859851 C104.551528,282.892274 104.97273,282.908486 105.393933,282.908486 C114.14199,282.90646 121.541387,276.146108 122.199516,267.276186 C122.890046,257.976649 115.919951,249.878817 106.627166,249.187786" id="Fill-8" fill="#FFFFFF"></path>
                    <path d="M99.3401566,217.342597 C99.3401566,211.131422 101.913948,205.382286 106.585653,201.153013 C107.673085,200.166115 108.871893,199.300806 110.141576,198.522636 C95.2597554,194.546674 90.5860253,185.524766 88.7716136,182.014895 C83.1319522,171.096197 83.1319522,158.31516 83.1319522,152.843652 C83.1319522,140.421302 83.1096771,96.8883646 83.1096771,96.8883646 L83.0226015,96.8883646 C83.0813269,96.3229755 83.1096771,95.7494804 83.1096771,95.1678794 C83.1096771,85.8440247 75.5563784,78.2852379 66.2392934,78.2852379 C56.9222084,78.2852379 49.3689097,85.8440247 49.3689097,95.1678794 C49.3689097,95.7575863 49.3992849,96.3391873 49.4580103,96.9106559 L49.3689097,96.9106559 C49.3689097,96.9106559 49.3911849,140.427382 49.3911849,152.857837 C49.3911849,160.09036 49.3911849,179.307511 58.7973705,197.519527 C65.7249401,210.926747 79.1629267,226.370585 104.892742,232.002185 C101.225444,227.79723 99.3401566,222.558768 99.3401566,217.342597" id="Fill-11" fill="#FFFFFF"></path>
                    <path d="M176.420253,124.241851 C204.102182,129.891689 217.817595,150.926597 217.817595,153.417147 C217.817595,197.497235 176.027401,234.735913 126.562407,234.735913 C98.8258033,234.735913 97.9084724,200.368764 126.562407,200.368764 C156.880902,200.368764 183.475399,178.428017 183.475399,153.417147 C183.475399,143.529929 181.377485,132.890886 176.420253,124.241851" id="Fill-13" fill="#FFFFFF"></path>
                </g>
            </g>
        </g>
    </g>
</svg>
