<svg width="226px" height="226px" viewBox="0 0 226 226" version="1.1" xmlns="http://www.w3.org/2000/svg" xmlns:xlink="http://www.w3.org/1999/xlink">
    <g stroke="none" stroke-width="1" fill="none" fill-rule="evenodd">
        <g id="08_li5_Casestudy" transform="translate(-261.000000, -4278.000000)">
            <g id="logo-and-icon" transform="translate(0.000000, 3663.000000)">
                <g id="op-1" transform="translate(261.000000, 615.000000)">
                    <rect id="Rectangle-12" fill="#FFFFFF" x="0" y="0" width="226" height="226" rx="6"></rect>
                    <g id="logo" transform="translate(54.000000, 78.000000)" fill="#C3C3C3">
                        <path d="M58.8947579,39.6996908 L58.8947579,46.9364193 C58.8947579,48.249247 58.0441198,49.4607605 56.3402892,49.4607605 L25.6415366,49.4607605 L25.6415366,0.897203792 L38.5296824,0.897203792 C39.2040621,0.897203792 40.0146802,1.50423761 40.0146802,2.55824583 L40.0146802,35.974904 C40.0146802,36.5606534 40.2156317,37.6087019 41.2970234,37.6087019 L56.3402892,37.6087019 C57.9010696,37.6087019 58.8947579,38.5290435 58.8947579,39.6996908" id="Fill-4"></path>
                        <path d="M57.8300554,0.897459206 L48.002163,0.897459206 C47.5142595,0.897459206 46.9360981,1.44063953 46.9360981,2.05278163 L46.9360981,2.49379638 L46.9360981,29.8026557 L46.9360981,30.2436705 C46.9360981,30.8558125 47.5142595,31.3989929 48.002163,31.3989929 L57.8300554,31.3989929 C58.4874053,31.3989929 58.8944173,30.9341395 58.8944173,30.3228488 L58.8944173,29.8026557 L58.8944173,2.49379638 L58.8944173,1.97360331 C58.8944173,1.36231259 58.4874053,0.897459206 57.8300554,0.897459206" id="Fill-6"></path>
                        <path d="M79.471684,34.5947322 C82.2202922,33.5313588 83.907093,33.2776476 86.6284536,33.2776476 C98.2734247,33.2776476 106.980757,42.7185985 106.980757,55.1998268 C106.980757,69.0449655 97.3308257,78.9039439 84.0058658,78.9039439 C77.7125066,78.9039439 72.0475466,76.7005729 67.8539606,72.6096928 C65.3335515,69.987443 61.9275934,66.2183845 60.1002968,60.6563201 L72.8794519,58.9135456 C74.8702345,64.1580453 78.8662749,66.2132762 83.5860815,66.2132762 C89.3566261,66.2132762 93.8678177,61.5987975 93.8678177,55.5139859 C93.8678177,49.4308771 89.3566261,44.7108273 83.4830512,44.7108273 C80.158836,44.7108273 77.6077734,45.8295404 75.2866129,48.5335227 C75.0447898,48.8153294 74.380628,49.4308771 73.2634737,49.4308771 L67.2502545,49.4308771 C66.1858926,49.4308771 65.7533359,48.6859197 65.7533359,47.3024275 L65.7533359,2.87742813 C65.7533359,1.70678087 66.3391607,1.01375769 67.3566907,1.01375769 L99.8367595,1.01375769 C100.830448,1.01375769 101.421382,2.06180626 101.421382,2.70034113 L101.421382,11.7811584 C101.421382,12.4205446 100.901121,13.1808268 100.049632,13.1808268 L80.1111526,13.1808268 C78.8219974,13.1808268 78.0267062,13.8925803 78.0267062,15.4352806 L78.0267062,33.101412 C78.0267062,34.3784817 78.7453634,34.9914752 79.471684,34.5947322" id="Fill-8"></path>
                        <path d="M31.7339443,3.05545165 C31.7339443,4.24738341 30.7675037,5.21369951 29.5754183,5.21369951 L2.27921792,5.21369951 C1.08713255,5.21369951 0.120691915,4.24738341 0.120691915,3.05545165 C0.120691915,1.86351989 1.08713255,0.897203792 2.27921792,0.897203792 L29.5754183,0.897203792 C30.7675037,0.897203792 31.7339443,1.86351989 31.7339443,3.05545165" id="Fill-10"></path>
                        <path d="M72.9242403,59.3165888 C72.9242403,60.5085205 71.9577996,61.4748366 70.7657143,61.4748366 L43.4695138,61.4748366 C42.2774285,61.4748366 41.3109878,60.5085205 41.3109878,59.3165888 C41.3109878,58.124657 42.2774285,57.1583409 43.4695138,57.1583409 L70.7657143,57.1583409 C71.9577996,57.1583409 72.9242403,58.124657 72.9242403,59.3165888" id="Fill-12"></path>
                        <path d="M73.1891386,68.2236394 C73.1891386,69.4155711 72.222698,70.3818872 71.0306126,70.3818872 L52.2118422,70.3818872 C51.0197568,70.3818872 50.0533162,69.4155711 50.0533162,68.2236394 C50.0533162,67.0317076 51.0197568,66.0653915 52.2118422,66.0653915 L71.0306126,66.0653915 C72.222698,66.0653915 73.1891386,67.0317076 73.1891386,68.2236394" id="Fill-14"></path>
                        <path d="M41.1600188,47.3024275 C41.1600188,48.4943592 40.1935781,49.4606753 39.0014927,49.4606753 L11.7052923,49.4606753 C10.513207,49.4606753 9.54676635,48.4943592 9.54676635,47.3024275 C9.54676635,46.1104957 10.513207,45.1441796 11.7052923,45.1441796 L39.0014927,45.1441796 C40.1935781,45.1441796 41.1600188,46.1104957 41.1600188,47.3024275" id="Fill-16"></path>
                        <path d="M33.4775395,38.3953769 C33.4775395,39.5873086 32.5110988,40.5536247 31.3190135,40.5536247 L4.02281306,40.5536247 C2.8307277,40.5536247 1.86428706,39.5873086 1.86428706,38.3953769 C1.86428706,37.2034451 2.8307277,36.237129 4.02281306,36.237129 L31.3190135,36.237129 C32.5110988,36.237129 33.4775395,37.2034451 33.4775395,38.3953769" id="Fill-18"></path>
                        <path d="M32.6828443,11.941984 C32.6828443,13.1339158 31.7164036,14.1002319 30.5243183,14.1002319 L13.8249053,14.1002319 C12.6328199,14.1002319 11.6663793,13.1339158 11.6663793,11.941984 C11.6663793,10.7500522 12.6328199,9.78373615 13.8249053,9.78373615 L30.5243183,9.78373615 C31.7164036,9.78373615 32.6828443,10.7500522 32.6828443,11.941984" id="Fill-20"></path>
                        <path d="M25.6414515,42.7328165 C25.6414515,45.1447756 24.0772652,45.1447756 23.5476387,45.1447756 C23.0180122,45.1447756 25.0930922,46.1323762 25.0930922,46.1323762 L27.2124497,45.6905101 L27.2124497,42.24753 L27.2124497,38.8036986 L23.5476387,39.1127495 C23.5476387,39.1127495 23.1176364,40.5532842 23.5476387,40.5532842 C23.9784924,40.5532842 25.6414515,40.7465474 25.6414515,42.7328165" id="Fill-22"></path>
                        <path d="M25.6414515,7.38480321 C25.6414515,9.79676226 24.0772652,9.79676226 23.5476387,9.79676226 C23.0180122,9.79676226 25.0930922,10.7843629 25.0930922,10.7843629 L27.2124497,10.3424967 L27.2124497,6.89951671 L27.2124497,3.45568531 L23.5476387,3.76473619 C23.5476387,3.76473619 23.1176364,5.20527085 23.5476387,5.20527085 C24.3863559,5.20527085 25.6414515,5.39853407 25.6414515,7.38480321" id="Fill-24"></path>
                        <path d="M25.6414515,18.0744729 C25.6414515,20.4864319 27.2124497,19.2323495 27.2124497,19.2323495 L27.2124497,15.7893694 L27.2124497,12.345538 L23.5476387,12.6545889 L23.5476387,14.0951236 C25.2846773,14.0951236 25.6414515,16.0882038 25.6414515,18.0744729" id="Fill-26"></path>
                        <path d="M25.6414515,32.1830286 C25.6414515,29.7710695 27.2124497,31.1222093 27.2124497,31.1222093 L27.2124497,34.5651893 L27.2124497,38.0090207 L23.5476387,37.6999698 L23.5476387,36.2594352 C25.3800442,36.2594352 25.6414515,34.1692977 25.6414515,32.1830286" id="Fill-28"></path>
                        <path d="M57.5836343,61.4744961 C57.5836343,61.4744961 60.2709353,61.6694621 61.2595147,63.5578225 C62.248094,65.446183 61.2927227,66.0659875 59.7029918,66.0659875 C58.1132608,66.0659875 61.2263066,68.223384 61.2263066,68.223384 L65.796251,67.6095391 L63.2128317,61.4744961 L57.5836343,60.7227277 L57.5836343,61.4744961 Z" id="Fill-30"></path>
                        <path d="M62.9876127,70.3815467 C64.1183908,70.3815467 65.9209942,70.8038311 67.5873592,72.3312065 C69.2537243,73.8577305 71.8005295,70.3815467 71.8005295,70.3815467 L66.6788199,68.9997572 C66.6788199,68.9997572 61.8568346,70.3815467 62.9876127,70.3815467" id="Fill-32"></path>
                    </g>
                </g>
            </g>
        </g>
    </g>
</svg>
