<svg width="226px" height="226px" viewBox="0 0 226 226" version="1.1" xmlns="http://www.w3.org/2000/svg" xmlns:xlink="http://www.w3.org/1999/xlink">
    <defs>
        <rect id="path-1" x="0" y="0" width="226" height="226" rx="6"></rect>
        <mask id="mask-2" maskContentUnits="userSpaceOnUse" maskUnits="objectBoundingBox" x="0" y="0" width="226" height="226" fill="white">
            <use xlink:href="#path-1"></use>
        </mask>
    </defs>
    <g stroke="none" stroke-width="1" fill="none" fill-rule="evenodd">
        <g id="08_li5_Casestudy" transform="translate(-1110.000000, -4563.000000)">
            <g id="logo-and-icon" transform="translate(0.000000, 3663.000000)">
                <g id="op-4-B" transform="translate(1110.000000, 900.000000)">
                    <use id="Rectangle-12" stroke-opacity="0.505944293" stroke="#ED1A3D" mask="url(#mask-2)" stroke-width="8" fill="#FFFFFF" xlink:href="#path-1"></use>
                    <g id="logo" transform="translate(65.000000, 61.000000)" fill="#333742">
                        <path d="M69.6619712,49.6287059 C69.6619712,39.7471069 63.3087504,36.112915 60.5986664,35.6289453 C66.0611447,38.6001652 66.5276711,44.2442676 66.5276711,49.6287059 C66.5276711,55.0131442 62.9290715,59.9843298 57.6625565,62.9677042 C60.1588623,62.2251755 69.6619712,59.5103048 69.6619712,49.6287059" id="Fill-1"></path>
                        <path d="M60.796634,39.0376163 C70.2719071,55.4539101 55.0892015,62.9686987 48.8373027,62.9686987 C55.8897563,62.6725712 65.0900127,51.4119903 60.796634,39.0376163" id="Fill-3"></path>
                        <path d="M59.4022879,43.4024035 C58.7520459,52.7315257 49.4504676,59.0209209 42.1931432,58.2397188 C54.5243594,61.8761207 61.7159915,51.4122113 59.4022879,43.4024035" id="Fill-5"></path>
                        <path d="M54.5433991,47.5544872 C51.6663008,52.3444605 42.9682005,54.4007789 39.7403724,53.2626769 C44.9189265,56.822837 55.008812,53.0317416 54.5433991,47.5544872" id="Fill-7"></path>
                        <path d="M46.0731061,82.9843784 C38.1577457,82.399858 31.5907468,79.3159329 27.0835898,74.064089 C22.7089308,68.9691485 20.3974541,62.1239618 20.3974541,54.2677425 C20.3974541,51.6280087 20.3796392,50.1760998 20.3629378,48.771704 C20.3317618,46.2137367 20.3050396,44.0038297 20.3974541,35.1553623 C20.5577877,19.701483 13.0254466,14.0275469 9.80875285,12.3115541 C8.84118383,11.6563167 7.67208432,11.2717929 6.41168371,11.2717929 C3.08030683,11.2717929 0.379130257,13.9513051 0.379130257,17.2584308 C0.379130257,19.8296576 4.30953146,22.8627549 4.30953146,22.8627549 C4.30953146,22.8627549 8.52608368,26.1046884 8.43366914,35.0327124 C8.34014118,44.0137743 8.36909031,46.394949 8.39915287,48.914243 C8.41585429,50.2843853 8.43366914,51.6998307 8.43366914,54.2677425 C8.43366914,76.9049244 23.2032929,93.2029882 45.1857039,94.8250599 C45.3371301,94.8361094 45.4863295,94.8416342 45.6355289,94.8416342 C48.7375396,94.8416342 51.3618896,92.4637743 51.5945961,89.3444906 C51.8395503,86.0749333 49.3677399,83.2274682 46.0731061,82.9843784" id="Fill-9"></path>
                        <path d="M59.6832059,21.5337168 C59.0262833,21.5171425 57.4084722,21.504988 55.4054151,21.6806756 L55.4054151,17.8575366 C60.7832728,17.4752227 68.3857599,15.9293928 74.3648688,10.7659452 C76.8567209,8.61349583 77.1194899,4.86438868 74.950532,2.39039785 C72.781574,-0.0824880268 69.0025991,-0.343257047 66.510747,1.80919232 C60.3991401,7.08755508 50.2235207,6.0135403 50.1466942,6.00359572 C48.4464895,5.79917932 46.7396042,6.32624213 45.456935,7.45329468 C44.1742658,8.57924227 43.4405167,10.1979991 43.4405167,11.8974176 L43.4405167,29.1125927 C43.4405167,31.1700161 44.5138614,33.0815856 46.2775315,34.163335 C48.0412016,35.2439795 50.2435624,35.3434254 52.0985336,34.4229991 C53.6684673,33.6440069 57.4106991,33.3556141 59.4293442,33.404232 C59.4861291,33.4064419 59.5429139,33.4064419 59.5996987,33.4064419 C69.4412897,33.4064419 72.9330003,42.145519 72.9330003,49.6282639 C72.9330003,58.270105 63.6670516,65.8511908 53.1039592,65.8511908 C43.1209628,65.8511908 40.5778931,60.9684014 39.7417086,59.364009 C37.7419917,55.5242956 37.7419917,51.0304498 37.7419917,49.1067258 C37.7419917,44.7377398 37.7341977,33.7058843 37.7341977,33.7058843 L37.7030217,33.7058843 C37.7241768,33.5069927 37.7341977,33.3047862 37.7341977,33.1003698 C37.7341977,29.8219728 35.0564031,27.1645597 31.7517485,27.1645597 C28.4482073,27.1645597 25.7692993,29.8219728 25.7692993,33.1003698 C25.7692993,33.3081011 25.7804336,33.5125174 25.8015887,33.713619 L25.7692993,33.713619 C25.7692993,33.713619 25.7770933,44.7399497 25.7770933,49.1111457 C25.7770933,51.6547486 25.7770933,58.4115391 29.1129239,64.8158494 C32.1804183,70.7041465 38.8331512,77.7239159 53.1039592,77.7239159 C70.3375994,77.7239159 84.8978986,64.8578376 84.8978986,49.6282639 C84.8978986,33.1180491 74.5329964,21.57681 59.6832059,21.5337168" id="Fill-12"></path>
                        <path d="M31.7519712,23.1105959 C35.3550245,23.1105959 38.2755464,20.212303 38.2755464,16.6366735 C38.2755464,13.062149 35.3550245,10.163856 31.7519712,10.163856 C28.1489179,10.163856 25.2283959,13.062149 25.2283959,16.6366735 C25.2283959,20.212303 28.1489179,23.1105959 31.7519712,23.1105959" id="Fill-15"></path>
                    </g>
                </g>
            </g>
        </g>
    </g>
</svg>
