<svg width="24" height="24" viewBox="0 0 24 24" fill="none" xmlns="http://www.w3.org/2000/svg">
<path fill-rule="evenodd" clip-rule="evenodd" d="M22.5 3H12.6L10.05 0.45C9.75 0.15 9.45 0 9 0H1.5C0.6 0 0 0.6 0 1.5V22.5C0 23.4 0.6 24 1.5 24H22.5C23.4 24 24 23.4 24 22.5V4.5C24 3.6 23.4 3 22.5 3ZM3 21V3H8.4L10.95 5.55C11.25 5.85 11.55 6 12 6H21V21H3ZM10.5 12V9H13.5V12H16.5V15H13.5V18H10.5V15H7.5V12H10.5Z" fill="#A8B8C9"/>
</svg>
