<svg width="24" height="24" viewBox="0 0 24 24" fill="none" xmlns="http://www.w3.org/2000/svg">
<path fill-rule="evenodd" clip-rule="evenodd" d="M19.5 0H4.5V4.5H19.5V0ZM22.5 7.5H1.5C0.6 7.5 0 8.1 0 9V18C0 18.9 0.6 19.5 1.5 19.5H4.5V22.5C4.5 23.4 5.1 24 6 24H18C18.9 24 19.5 23.4 19.5 22.5V19.5H22.5C23.4 19.5 24 18.9 24 18V9C24 8.1 23.4 7.5 22.5 7.5ZM16.5 21H7.5V13.5H16.5V21Z" fill="#A8B8C9"/>
</svg>
