<svg width="64px" height="64px" viewBox="0 0 64 64" version="1.1" xmlns="http://www.w3.org/2000/svg" xmlns:xlink="http://www.w3.org/1999/xlink">
    <g stroke="none" stroke-width="1" fill="none" fill-rule="evenodd" >
        <g id="06-From-Done" transform="translate(-1079.000000, -540.000000)" stroke="#B7C2C9">
            <g id="Oval-7-+-Path-138" transform="translate(1080.000000, 541.000000)">
                <path d="M31,62 C48.1208272,62 62,48.1208272 62,31 C62,13.8791728 48.1208272,0 31,0 C13.8791728,0 0,13.8791728 0,31 C0,48.1208272 13.8791728,62 31,62 Z" id="Oval-7"></path>
                <path d="M19,33.5741846 L25.0974458,39.6716304 L41.7690762,23" id="Path-138"></path>
            </g>
        </g>
    </g>
</svg>
