<svg width="17px" height="17px" viewBox="0 0 17 17" version="1.1" xmlns="http://www.w3.org/2000/svg" xmlns:xlink="http://www.w3.org/1999/xlink">
    <g stroke="none" stroke-width="1" fill="none" fill-rule="evenodd">
        <path d="M12.1870183,14.0940351 C12.115597,13.6685107 11.7401343,11.6009628 10.8156617,9.06116629 C13.090465,8.69738466 15.061227,9.32148709 15.2064059,9.36887882 C14.8930197,11.3322984 13.7693016,13.0257186 12.1870183,14.0940351 L12.1870183,14.0940351 Z M8.25050062,15.2961832 C6.54473189,15.2961832 4.98113837,14.690103 3.7619693,13.6815267 C3.85508404,13.7566193 3.9198305,13.8046785 3.9198305,13.8046785 C3.9198305,13.8046785 5.27049495,10.8590485 9.44897753,9.40358826 C9.46432978,9.39758086 9.48001578,9.39290843 9.49570177,9.38856975 C10.487257,11.9647444 10.8964279,14.1220696 11.00089,14.7381622 C10.1558486,15.0972714 9.22570238,15.2961832 8.25050062,15.2961832 L8.25050062,15.2961832 Z M1.20448431,8.24983313 C1.20448431,8.17474059 1.20782176,8.10098303 1.21049172,8.02755921 C1.33464471,8.02989543 4.81626853,8.1089929 8.44373875,7.02365541 C8.64565424,7.41847529 8.83855863,7.82030381 9.01544327,8.22113109 C8.92199478,8.24716317 8.82988127,8.27519772 8.73776775,8.30523473 C4.93541536,9.53374866 3.00703898,12.9552984 3.00703898,12.9552984 C3.00703898,12.9552984 3.00904145,12.9573009 3.00937519,12.9586359 C1.88765954,11.710431 1.20448431,10.0600639 1.20448431,8.24983313 L1.20448431,8.24983313 Z M5.24412913,1.87798095 C5.33757762,2.00380267 6.6405166,3.77031291 7.86035316,5.93765044 C4.477184,6.83642468 1.54123263,6.8013815 1.35500314,6.79804405 C1.81323449,4.61568802 3.27904084,2.80612472 5.24412913,1.87798095 L5.24412913,1.87798095 Z M6.5627541,1.40940351 C6.56242036,1.410071 6.56141912,1.41073849 6.56141912,1.41073849 C6.56141912,1.41073849 6.55340925,1.41240721 6.54039321,1.41507717 C6.54740185,1.4130747 6.55507797,1.41173972 6.5627541,1.40940351 L6.5627541,1.40940351 Z M12.903568,2.96265094 C12.8862133,2.990018 11.8826433,4.51723336 9.22336617,5.51379478 C8.01888185,3.30106798 6.69558446,1.54290135 6.58978741,1.4033961 C7.12244382,1.27423694 7.67779486,1.20448431 8.25050062,1.20448431 C10.0340318,1.20448431 11.6620381,1.86963733 12.903568,2.96265094 L12.903568,2.96265094 Z M15.2935132,8.1800805 C15.1913874,8.15771961 12.8071158,7.64475414 10.3861324,7.94912923 C10.3367382,7.82864742 10.2863428,7.70749813 10.2342786,7.5853476 C10.087431,7.24058941 9.92990352,6.89916867 9.76603491,6.56342159 C12.5484638,5.42802241 13.6778555,3.79434252 13.6912053,3.77465159 C14.6794231,4.97479722 15.2771597,6.50801998 15.2935132,8.1800805 L15.2935132,8.1800805 Z M16.3321265,6.58945367 C16.2239932,6.05946722 16.0617933,5.53749065 15.8512005,5.03887619 C15.6446126,4.54927284 15.3882967,4.07802545 15.0905965,3.63714881 C14.7955663,3.20061085 14.4564817,2.78977123 14.083689,2.4169785 C13.7105625,2.04351828 13.2997229,1.70443375 12.8631849,1.410071 C12.422642,1.11136957 11.9507272,0.855721192 11.4617913,0.648465786 C10.9631768,0.438540424 10.441534,0.275673052 9.91121382,0.168207286 C9.36787759,0.0567365845 8.80885536,0 8.25050062,0 C7.69114464,0 7.13212241,0.0567365845 6.58845244,0.168207286 C6.05846599,0.275673052 5.53682316,0.438540424 5.03854245,0.648465786 C4.54960659,0.855721192 4.0776917,1.11136957 3.63648132,1.410071 C3.19994336,1.70443375 2.78910374,2.04351828 2.41597726,2.4169785 C2.04318453,2.78977123 1.70443375,3.20061085 1.40973725,3.63714881 C1.11170331,4.07802545 0.855387447,4.54927284 0.648799531,5.03887619 C0.437872934,5.53749065 0.276006796,6.05946722 0.167539797,6.58945367 C0.0564028399,7.13178867 0,7.69114464 0,8.24983313 C0,8.80952285 0.0564028399,9.36887882 0.167539797,9.91188131 C0.276006796,10.4418678 0.437872934,10.9641781 0.648799531,11.462125 C0.855387447,11.9510609 1.11170331,12.4236433 1.40973725,12.8641862 C1.70443375,13.3007241 2.04318453,13.7108963 2.41597726,14.0843565 C2.78910374,14.4571492 3.19994336,14.7955663 3.63648132,15.0909302 C4.0776917,15.3886304 4.54960659,15.6449463 5.03854245,15.8515342 C5.53682316,16.0627946 6.05846599,16.2236595 6.58845244,16.3324602 C7.13212241,16.4445984 7.69114464,16.5006675 8.25050062,16.5006675 C8.80885536,16.5006675 9.36787759,16.4445984 9.91121382,16.3324602 C10.441534,16.2236595 10.9631768,16.0627946 11.4617913,15.8515342 C11.9507272,15.6449463 12.422642,15.3886304 12.8631849,15.0909302 C13.2997229,14.7955663 13.7105625,14.4571492 14.083689,14.0843565 C14.4564817,13.7108963 14.7955663,13.3007241 15.0905965,12.8641862 C15.3882967,12.4236433 15.6446126,11.9510609 15.8512005,11.462125 C16.0617933,10.9641781 16.2239932,10.4418678 16.3321265,9.91188131 C16.4435972,9.36887882 16.5,8.80952285 16.5,8.24983313 C16.5,7.69114464 16.4435972,7.13178867 16.3321265,6.58945367 L16.3321265,6.58945367 Z" id="Dribbble" fill="#00b5ec" />
    </g>
</svg>
