
<svg width="62px" height="62px" viewBox="0 0 62 62" version="1.1" xmlns="http://www.w3.org/2000/svg" xmlns:xlink="http://www.w3.org/1999/xlink">
    <!-- Generator: Sketch 45.1 (43504) - http://www.bohemiancoding.com/sketch -->
    <desc>Created with Sketch.</desc>
    <defs></defs>
    <g id="Tigo---Desktop" stroke="none" stroke-width="1" fill="none" fill-rule="evenodd">
        <g id="Tigo---Case-Study" transform="translate(-224.000000, -4326.000000)" stroke="#E1A837">
            <g id="[-TIGO-SPORTS-]" transform="translate(-30.000000, -2.000000)">
                <g id="Icon/Arrow/Yellow/Left" transform="translate(250.000000, 4324.000000)">
                    <circle id="Oval" fill="#202020" fill-rule="evenodd" cx="35" cy="35" r="30"></circle>
                    <polyline id="Path-3" points="42.5368304 20 27 35.0986985 42.5368304 50.197397"></polyline>
                </g>
            </g>
        </g>
    </g>
</svg>
