
<svg width="62px" height="62px" viewBox="0 0 62 62" version="1.1" xmlns="http://www.w3.org/2000/svg" xmlns:xlink="http://www.w3.org/1999/xlink">
    <!-- Generator: Sketch 45.1 (43504) - http://www.bohemiancoding.com/sketch -->
    <desc>Created with Sketch.</desc>
    <defs></defs>
    <g id="Tigo---Desktop" stroke="none" stroke-width="1" fill="none" fill-rule="evenodd">
        <g id="Tigo---Case-Study" transform="translate(-231.000000, -9923.000000)" stroke="#29B25B">
            <g id="Design-Kick-Off---Los-Analistas" transform="translate(184.000000, 9297.000000)">
                <g id="Carrousel-LOS-ANALISTAS" transform="translate(43.000000, 378.000000)">
                    <g id="Icon/Arrow/Green/Left" transform="translate(0.000000, 244.000000)">
                        <circle id="Oval" cx="35" cy="35" r="30"></circle>
                        <polyline id="Path-3" points="42.5368304 20 27 35.0986985 42.5368304 50.197397"></polyline>
                    </g>
                </g>
            </g>
        </g>
    </g>
</svg>
